pipeline/4_stage/sim/riscv.vcd
$date
	Thu Jun 24 07:27:53 2021
$end
$version
	Icarus Verilog
$end
$timescale
	1s
$end
$scope module riscv_tb $end
$var wire 8 ! gpio [7:0] $end
$var reg 1 " clk $end
$var reg 1 # rstn $end
$scope module fpga0 $end
$var wire 1 $ clk $end
$var wire 32 % data_addr [31:0] $end
$var wire 32 & data_rd [31:0] $end
$var wire 8 ' data_wr0 [7:0] $end
$var wire 8 ( data_wr1 [7:0] $end
$var wire 8 ) data_wr2 [7:0] $end
$var wire 8 * data_wr3 [7:0] $end
$var wire 4 + datamem_wr [3:0] $end
$var wire 1 , gpio_en $end
$var wire 8 - gpio_o [7:0] $end
$var wire 32 . instr [31:0] $end
$var wire 32 / instr_addr [31:0] $end
$var wire 1 0 mem_en $end
$var wire 1 1 rstn $end
$var reg 8 2 gpio_reg [7:0] $end
$scope module cpu0 $end
$var wire 4 3 ALU_cntr [3:0] $end
$var wire 2 4 ALUa [1:0] $end
$var wire 2 5 ALUb [1:0] $end
$var wire 3 6 Branch_cntr [2:0] $end
$var wire 3 7 Ld_cntr [2:0] $end
$var wire 3 8 Ld_cntr2 [2:0] $end
$var wire 2 9 St_cntr [1:0] $end
$var wire 2 : St_cntr2 [1:0] $end
$var wire 32 ; alu_out [31:0] $end
$var wire 1 < alu_ov_flag $end
$var wire 1 = alu_z_flag $end
$var wire 1 $ clk $end
$var wire 32 > data_addr [31:0] $end
$var wire 32 ? data_in [31:0] $end
$var wire 32 @ data_out [31:0] $end
$var wire 8 A data_out0 [7:0] $end
$var wire 8 B data_out1 [7:0] $end
$var wire 8 C data_out2 [7:0] $end
$var wire 8 D data_out3 [7:0] $end
$var wire 4 E datamem_wr [3:0] $end
$var wire 1 F ide_wait $end
$var wire 32 G imm_data [31:0] $end
$var wire 32 H instr [31:0] $end
$var wire 32 I instr_addr [31:0] $end
$var wire 32 J instr_in [31:0] $end
$var wire 1 K jal $end
$var wire 1 L jalr $end
$var wire 2 M mem_to_reg [1:0] $end
$var wire 2 N mem_to_reg2 [1:0] $end
$var wire 32 O memtoreg_data [31:0] $end
$var wire 32 P memtoreg_data_DH [31:0] $end
$var wire 32 Q pc [31:0] $end
$var wire 32 R pc2 [31:0] $end
$var wire 1 S pcbranch $end
$var wire 5 T reg_addr1 [4:0] $end
$var wire 5 U reg_addr2 [4:0] $end
$var wire 5 V reg_addr3 [4:0] $end
$var wire 5 W reg_addr31 [4:0] $end
$var wire 5 X reg_addr32 [4:0] $end
$var wire 5 Y reg_addr33 [4:0] $end
$var wire 1 Z reg_wr $end
$var wire 1 [ reg_wr1 $end
$var wire 1 \ reg_wr2 $end
$var wire 32 ] rs1 [31:0] $end
$var wire 2 ^ rs1_hazard [1:0] $end
$var wire 32 _ rs1_input [31:0] $end
$var wire 32 ` rs2 [31:0] $end
$var wire 32 a rs22 [31:0] $end
$var wire 2 b rs2_hazard [1:0] $end
$var wire 32 c rs2_input [31:0] $end
$var wire 1 1 rstn $end
$scope module regset $end
$var wire 1 $ clk $end
$var wire 5 d rs1_addr [4:0] $end
$var wire 32 e rs1_out [31:0] $end
$var wire 5 f rs2_addr [4:0] $end
$var wire 32 g rs2_out [31:0] $end
$var wire 1 1 rstn $end
$var wire 5 h w_addr [4:0] $end
$var wire 32 i w_data [31:0] $end
$var wire 1 \ write $end
$var integer 32 j i [31:0] $end
$var reg 32 k rs1_out_id2exe [31:0] $end
$var reg 32 l rs2_out_id2exe [31:0] $end
$upscope $end
$scope module fetchunit $end
$var wire 3 m Branch_cntr [2:0] $end
$var wire 1 n branchcnt $end
$var wire 1 $ clk $end
$var wire 1 F ide_wait $end
$var wire 32 o immediate [31:0] $end
$var wire 32 p instr_addr_o [31:0] $end
$var wire 32 q instr_in [31:0] $end
$var wire 1 K jal $end
$var wire 1 L jalr $end
$var wire 1 r pc_error $end
$var wire 32 s pc_nxt [31:0] $end
$var wire 1 S pcbranch $end
$var wire 32 t rs1 [31:0] $end
$var wire 1 1 rstn $end
$var wire 32 u t1 [31:0] $end
$var wire 32 v t2 [31:0] $end
$var wire 32 w t3 [31:0] $end
$var wire 32 x t4 [31:0] $end
$var reg 1 y cpu_wait $end
$var reg 1 z i $end
$var reg 32 { instr_reg [31:0] $end
$var reg 32 | pc [31:0] $end
$var reg 32 } pc_if2id [31:0] $end
$var reg 32 ~ pc_next1 [31:0] $end
$upscope $end
$scope module decodeunit $end
$var wire 32 !" Iimm [31:0] $end
$var wire 32 "" SBimm [31:0] $end
$var wire 32 #" Shiftimm [31:0] $end
$var wire 32 $" Simm [31:0] $end
$var wire 32 %" UJimm [31:0] $end
$var wire 32 &" Uimm [31:0] $end
$var wire 1 $ clk $end
$var wire 1 F ide_wait $end
$var wire 32 '" instr [31:0] $end
$var wire 32 (" pc_if2id [31:0] $end
$var wire 1 1 rstn $end
$var wire 5 )" wr_addr [4:0] $end
$var reg 2 *" alu_a [1:0] $end
$var reg 2 +" alu_b [1:0] $end
$var reg 4 ," alu_cntr [3:0] $end
$var reg 3 -" branch_cntr [2:0] $end
$var reg 32 ." imm [31:0] $end
$var reg 1 /" jal $end
$var reg 1 0" jalr $end
$var reg 3 1" ld_cntr_id2exe [2:0] $end
$var reg 2 2" memtoreg_id2exe [1:0] $end
$var reg 32 3" pc_id2exe [31:0] $end
$var reg 1 4" reg_write $end
$var reg 2 5" st_cntr_id2exe [1:0] $end
$var reg 5 6" wr_addr_id2exe [4:0] $end
$upscope $end
$scope module exeunit $end
$var wire 2 7" ALUa [1:0] $end
$var wire 2 8" ALUb [1:0] $end
$var wire 3 9" Ld_cntr_id2exe [2:0] $end
$var wire 2 :" Memtoreg_id2exe [1:0] $end
$var wire 32 ;" Rd1 [31:0] $end
$var wire 32 <" Rd2 [31:0] $end
$var wire 1 Z RegW_id2exe $end
$var wire 2 =" St_cntr_id2exe [1:0] $end
$var wire 4 >" alu_cntr [3:0] $end
$var wire 3 ?" branch_cntr [2:0] $end
$var wire 1 $ clk $end
$var wire 32 @" imm [31:0] $end
$var wire 1 A" overflow $end
$var wire 32 B" pc_id2exe [31:0] $end
$var wire 32 C" result [31:0] $end
$var wire 1 1 rstn $end
$var wire 5 D" wr_addr_id2exe [4:0] $end
$var wire 1 = z_flag $end
$var reg 3 E" Ld_cntr_exe2lsu [2:0] $end
$var reg 2 F" Memtoreg_exe2lsu [1:0] $end
$var reg 32 G" Rd2_exe2lsu [31:0] $end
$var reg 1 H" RegW_exe2lsu $end
$var reg 2 I" St_cntr_exe2lsu [1:0] $end
$var reg 32 J" a [31:0] $end
$var reg 32 K" alu_result [31:0] $end
$var reg 32 L" b [31:0] $end
$var reg 1 M" ov_flag $end
$var reg 1 N" pcbranch $end
$var reg 5 O" wr_addr_exe2lsu [4:0] $end
$scope module alu_inst $end
$var wire 32 P" a [31:0] $end
$var wire 4 Q" alu_cntr [3:0] $end
$var wire 32 R" b [31:0] $end
$var wire 1 A" o_flag $end
$var wire 32 S" unsigned_in_a [31:0] $end
$var wire 32 T" unsigned_in_b [31:0] $end
$var wire 1 = z_flag $end
$var reg 32 U" alu_result [31:0] $end
$var reg 1 V" slt_reg $end
$upscope $end
$upscope $end
$scope module lsuunit $end
$var wire 3 W" Ld_cntr [2:0] $end
$var wire 2 X" MemtoReg [1:0] $end
$var wire 2 Y" St_cntr [1:0] $end
$var wire 32 Z" alu_out_exe2lsu [31:0] $end
$var wire 1 < alu_ov_flag_exe2lsu $end
$var wire 2 [" b_pos [1:0] $end
$var wire 1 \" clk $end
$var wire 32 ]" data_addr [31:0] $end
$var wire 32 ^" datamem_rd_in [31:0] $end
$var wire 32 _" datamem_wr_in [31:0] $end
$var wire 1 [ reg_write_exe2lsu $end
$var wire 1 1 rstn $end
$var wire 5 `" wr_addr_exe2lsu [4:0] $end
$var reg 32 a" datamem_wr_o [31:0] $end
$var reg 4 b" dmem_wr [3:0] $end
$var reg 32 c" memtoreg_data_DH [31:0] $end
$var reg 32 d" reg_wrdata [31:0] $end
$var reg 1 e" reg_write_lsu2reg $end
$var reg 5 f" wr_addr_lsu2reg [4:0] $end
$upscope $end
$scope module datahardunit $end
$var wire 1 $ clk $end
$var wire 32 g" memtoreg_data [31:0] $end
$var wire 5 h" reg_addr1 [4:0] $end
$var wire 5 i" reg_addr2 [4:0] $end
$var wire 5 j" reg_addr31 [4:0] $end
$var wire 5 k" reg_addr33 [4:0] $end
$var wire 1 Z reg_wr1 $end
$var wire 1 \ reg_wr2 $end
$var wire 2 l" rs1_haz [1:0] $end
$var wire 2 m" rs2_haz [1:0] $end
$var wire 1 1 rstn $end
$var reg 32 n" memtoreg_data_DH [31:0] $end
$var reg 2 o" rs1_hazard [1:0] $end
$var reg 2 p" rs2_hazard [1:0] $end
$upscope $end
$scope module forwardingunit $end
$var wire 32 q" memtoreg_data [31:0] $end
$var wire 32 r" result [31:0] $end
$var wire 32 s" rs1 [31:0] $end
$var wire 2 t" rs1_hazard [1:0] $end
$var wire 32 u" rs2 [31:0] $end
$var wire 2 v" rs2_hazard [1:0] $end
$var wire 1 1 rstn $end
$var reg 32 w" rs1_fwd2exe [31:0] $end
$var reg 32 x" rs2_fwd2exe [31:0] $end
$upscope $end
$upscope $end
$scope module r0 $end
$var wire 10 y" addr [9:0] $end
$var wire 32 z" addr_in [31:0] $end
$var wire 1 $ clk $end
$var wire 32 {" data_out [31:0] $end
$upscope $end
$scope module rm0 $end
$var wire 32 |" addr [31:0] $end
$var wire 8 }" addrs [7:0] $end
$var wire 4 ~" byte_add [3:0] $end
$var wire 1 $ clk $end
$var wire 32 !# data_rd [31:0] $end
$var wire 8 "# data_wr0 [7:0] $end
$var wire 8 ## data_wr1 [7:0] $end
$var wire 8 $# data_wr2 [7:0] $end
$var wire 8 %# data_wr3 [7:0] $end
$var wire 1 0 mem_en $end
$var wire 4 &# mem_wr [3:0] $end
$var wire 1 1 rstn $end
$var integer 32 '# i [31:0] $end
$var integer 32 (# j [31:0] $end
$var integer 32 )# k [31:0] $end
$var integer 32 *# l [31:0] $end
$var integer 32 +# ram_size [31:0] $end
$upscope $end
$upscope $end
$upscope $end
$enddefinitions $end
#0
$dumpvars
b100000000 +#
b100000000 *#
b100000000 )#
b100000000 (#
b100000000 '#
b0 &#
b0 %#
b0 $#
b0 ##
b0 "#
b0 !#
b0 ~"
b0 }"
b0 |"
b1000000000000000000000100010011 {"
b0 z"
b0 y"
b0 x"
b0 w"
b0 v"
bx u"
b0 t"
bx s"
b0 r"
b0 q"
b0 p"
b0 o"
b0 n"
b0 m"
b0 l"
b0 k"
bx j"
b0 i"
b0 h"
b0 g"
b0 f"
0e"
b0 d"
bx c"
b0 b"
b0 a"
b0 `"
b0 _"
b0 ^"
b0 ]"
z\"
b0 ["
b0 Z"
b0 Y"
b0 X"
b0 W"
0V"
bx U"
b0 T"
b0 S"
b0 R"
b0 Q"
b0 P"
b0 O"
0N"
0M"
b0 L"
b0 K"
b0 J"
b0 I"
0H"
b0 G"
b0 F"
b0 E"
bx D"
bx C"
bx B"
0A"
b0 @"
b0 ?"
b0 >"
b0 ="
b0 <"
b0 ;"
b0 :"
b0 9"
b0 8"
b0 7"
bx 6"
b0 5"
04"
bx 3"
b0 2"
b0 1"
00"
0/"
b0 ."
b0 -"
b0 ,"
b0 +"
b0 *"
b0 )"
b0 ("
b0 '"
b0 &"
b0 %"
b0 $"
b0 #"
b0 ""
b0 !"
b0 ~
b0 }
b0 |
b0 {
0z
0y
b100 x
b11111111111111111111111111111000 w
b11111111111111111111111111111000 v
b11111111111111111111111111111000 u
bx t
b100 s
0r
b1000000000000000000000100010011 q
b0 p
b0 o
0n
b0 m
bx l
bx k
b100000 j
b0 i
b0 h
b0 g
b0 f
b0 e
b0 d
b0 c
b0 b
b0 a
bx `
b0 _
b0 ^
bx ]
0\
0[
0Z
b0 Y
b0 X
bx W
b0 V
b0 U
b0 T
0S
bx R
b0 Q
b0 P
b0 O
b0 N
b0 M
0L
0K
b1000000000000000000000100010011 J
b0 I
b0 H
b0 G
0F
b0 E
b0 D
b0 C
b0 B
b0 A
b0 @
b0 ?
b0 >
x=
0<
b0 ;
b0 :
b0 9
b0 8
b0 7
b0 6
b0 5
b0 4
b0 3
b0 2
01
10
b0 /
b1000000000000000000000100010011 .
b0 -
0,
b0 +
b0 *
b0 )
b0 (
b0 '
b0 &
b0 %
0$
0#
0"
b0 !
$end
#2
b0 l
b0 `
b0 u"
b0 k
b0 ]
b0 t
b0 s"
b100000000 *#
b100000000 )#
b100000000 (#
b100000000 '#
b100000 j
1"
1$
#4
0"
0$
#6
b100000 j
b100000000 '#
b100000000 (#
b100000000 )#
b100000000 *#
1"
1$
#8
0"
0$
#10
b100000000 *#
b100000000 )#
b100000000 (#
b100000000 '#
b100000 j
1"
1$
#12
0"
0$
#14
b100000 j
b100000000 '#
b100000000 (#
b100000000 )#
b100000000 *#
1"
1$
#16
0"
0$
#18
b100000000 *#
b100000000 )#
b100000000 (#
b100000000 '#
b100000 j
1"
1$
#20
0"
0$
#22
b100000 j
b100000000 '#
b100000000 (#
b100000000 )#
b100000000 *#
1"
1$
#24
0"
0$
#26
b100000000 *#
b100000000 )#
b100000000 (#
b100000000 '#
b100000 j
1"
1$
#28
0"
0$
#30
b100000 j
b100000000 '#
b100000000 (#
b100000000 )#
b100000000 *#
1"
1$
#32
0"
0$
#34
b100000000 *#
b100000000 )#
b100000000 (#
b100000000 '#
b100000 j
1"
1$
#36
0"
0$
#38
b100000 j
b100000000 '#
b100000000 (#
b100000000 )#
b100000000 *#
1"
1$
#39
1#
11
#40
0"
0$
#42
bx *
bx D
bx %#
bx )
bx C
bx $#
bx (
bx B
bx ##
bx '
bx A
bx "#
bx a"
bx @
bx f"
bx Y
bx h
bx k"
b11111111111111111111111111111100 w
b1000 s
x,
b11111111111111111111111111111100 v
b11111111111111111111111111111100 u
bx }"
bx &
bx ?
bx ^"
bx !#
b0xx ~"
bx ["
b1000000000000000000000000000000 &"
b10000000000 !"
b10000000010 ""
b10000000000 %"
b10000000010 $"
b10 V
b10 )"
b1000 x
b11111100000000000110010011 .
b11111100000000000110010011 J
b11111100000000000110010011 q
b11111100000000000110010011 {"
b1 y"
bx O"
bx X
bx `"
bx K"
bx %
bx >
bx ]"
bx |"
bx ;
bx Z"
bx r"
b0 6"
b0 W
b0 D"
b0 j"
b0 3"
b0 R
b0 B"
b1000000000000000000000100010011 {
b1000000000000000000000100010011 H
b1000000000000000000000100010011 '"
b100 |
b100 /
b100 I
b100 p
b100 z"
1"
1$
#44
0"
0$
#46
0=
b10000000000 L"
b10000000000 R"
b10000000000 T"
b10000000000 U"
b10000000000 C"
b0 f"
b0 Y
b0 h
b0 k"
b1100 s
b11111 #"
b0 u
b11111100000000000000000000 &"
b111111 !"
b100000100010 ""
b100000111110 %"
b100011 $"
b11 V
b11 )"
b11111 U
b11111 f
b11111 i"
b1100 x
b1000010011 .
b1000010011 J
b1000010011 q
b1000010011 {"
b10 y"
b10000000000 w
b100 }
b100 Q
b100 ("
b11111100000000000110010011 {
b11111100000000000110010011 H
b11111100000000000110010011 '"
b1000 |
b1000 /
b1000 I
b1000 p
b1000 z"
b10 6"
b10 W
b10 D"
b10 j"
b10000000000 ."
b10000000000 v
b10000000000 G
b10000000000 o
b10000000000 @"
b1 2"
b1 M
b1 :"
b11 *"
b11 4
b11 7"
b10 +"
b10 5
b10 8"
b1000 ,"
b1000 3
b1000 >"
b1000 Q"
14"
1Z
b0 O"
b0 X
b0 `"
1"
1$
#48
0"
0$
#50
b111111 U"
b111111 C"
b0 *
b0 D
b0 %#
b0 )
b0 C
b0 $#
b0 (
b0 B
b0 ##
b0 '
b0 A
b0 "#
b0 a"
b0 @
b10 f"
b10 Y
b10 h
b10 k"
1e"
1\
b10000000000 d"
b10000000000 O
b10000000000 i
b10000000000 g"
b111111 L"
b111111 R"
b111111 T"
b10000 s
1,
b0 #"
b100 u
b0 &
b0 ?
b0 ^"
b0 !#
b0 }"
b0 ~"
b0 ["
b1000011 w
b0 &"
b0 !"
b100 ""
b0 %"
b100 $"
b100 V
b100 )"
b0 U
b0 f
b0 i"
b10000 x
b10010011 .
b10010011 J
b10010011 q
b10010011 {"
b11 y"
b10 O"
b10 X
b10 `"
1H"
1[
b10000000000 K"
b10000000000 %
b10000000000 >
b10000000000 ]"
b10000000000 |"
b10000000000 ;
b10000000000 Z"
b10000000000 r"
b1 F"
b1 N
b1 X"
b11 6"
b11 W
b11 D"
b11 j"
b100 3"
b100 R
b100 B"
b111111 ."
b1000011 v
b111111 G
b111111 o
b111111 @"
b1000 }
b1000 Q
b1000 ("
b1000010011 {
b1000010011 H
b1000010011 '"
b1100 |
b1100 /
b1100 I
b1100 p
b1100 z"
1"
1$
#52
0"
0$
#54
1=
b0 U"
b0 C"
b0 L"
b0 R"
b0 T"
b11 f"
b11 Y
b11 h
b11 k"
b111111 d"
b111111 O
b111111 i
b111111 g"
b10100 s
b1000 u
0,
b100000000000 ""
b1 $"
b1 V
b1 )"
b10100 x
b100001000000010010011 .
b100001000000010010011 J
b100001000000010010011 q
b100001000000010010011 {"
b100 y"
b1000 w
b1111 }"
b11 ~"
b11 ["
b1100 }
b1100 Q
b1100 ("
b10010011 {
b10010011 H
b10010011 '"
b10000 |
b10000 /
b10000 I
b10000 p
b10000 z"
b100 6"
b100 W
b100 D"
b100 j"
b1000 3"
b1000 R
b1000 B"
b0 ."
b1000 v
b0 G
b0 o
b0 @"
b11 O"
b11 X
b11 `"
b111111 K"
b111111 %
b111111 >
b111111 ]"
b111111 |"
b111111 ;
b111111 Z"
b111111 r"
b10000000000 n"
b10000000000 P
b10000000000 q"
1"
1$
#56
0"
0$
#58
b100 f"
b100 Y
b100 h
b100 k"
b0 d"
b0 O
b0 i
b0 g"
b1 m"
b1 l"
b1100 w
b11000 s
b1 #"
b1100 v
b1100 u
b0 }"
b0 ~"
b0 ["
b100001000000000000000 &"
b1 !"
b1000100000000000 %"
b1 U
b1 f
b1 i"
b1 T
b1 d
b1 h"
b11000 x
b11111110001100001110111011100011 .
b11111110001100001110111011100011 J
b11111110001100001110111011100011 q
b11111110001100001110111011100011 {"
b101 y"
b111111 n"
b111111 P
b111111 q"
b100 O"
b100 X
b100 `"
b0 K"
b0 %
b0 >
b0 ]"
b0 |"
b0 ;
b0 Z"
b0 r"
b1 6"
b1 W
b1 D"
b1 j"
b1100 3"
b1100 R
b1100 B"
b10000 }
b10000 Q
b10000 ("
b100001000000010010011 {
b100001000000010010011 H
b100001000000010010011 '"
b10100 |
b10100 /
b10100 I
b10100 p
b10100 z"
1"
1$
#60
0"
0$
#62
0=
b1 U"
b1 C"
b1 L"
b1 R"
b1 T"
b1 f"
b1 Y
b1 h
b1 k"
b0 m"
b11100 s
b11 #"
b10000 u
b11111110001100001110000000000000 &"
b11111111111111111111111111100011 !"
b11111111111111111111111111111100 ""
b11111111111100001110111111100010 %"
b11111111111111111111111111111101 $"
b11101 V
b11101 )"
b111111 g
b11 U
b11 f
b11 i"
b11100 x
b100100000001000010011 .
b100100000001000010011 J
b100100000001000010011 q
b100100000001000010011 {"
b110 y"
b10001 w
b10100 }
b10100 Q
b10100 ("
b11111110001100001110111011100011 {
b11111110001100001110111011100011 H
b11111110001100001110111011100011 '"
b11000 |
b11000 /
b11000 I
b11000 p
b11000 z"
b10000 3"
b10000 R
b10000 B"
b1 ."
b10001 v
b1 G
b1 o
b1 @"
b1 O"
b1 X
b1 `"
b0 n"
b0 P
b0 q"
b1 p"
b1 b
b1 v"
b1 o"
b1 ^
b1 t"
1"
1$
#64
0"
0$
#66
0=
b1 J"
b1 P"
b1 S"
1A"
b1 d"
b1 O
b1 i
b1 g"
1V"
b11111111111111111111111111000010 U"
b11111111111111111111111111000010 C"
b111111 L"
b111111 R"
b111111 T"
b111111 x"
b111111 c
b111111 <"
b1 w"
b1 _
b1 ;"
1F
1r
b10 m"
1n
b100000 s
b0 l"
b1 #"
b10100 u
b1 ~"
b1 ["
b10000 w
b100100000000000000000 &"
b1 !"
b100 ""
b100000100000000000 %"
b100 $"
b100 V
b100 )"
b0 g
b1 U
b1 f
b1 i"
b100 T
b100 d
b100 h"
b100000 x
b10000010010000000100011 .
b10000010010000000100011 J
b10000010010000000100011 q
b10000010010000000100011 {"
b111 y"
b0 p"
b0 b
b0 v"
b1 K"
b1 %
b1 >
b1 ]"
b1 |"
b1 ;
b1 Z"
b1 r"
b11101 6"
b11101 W
b11101 D"
b11101 j"
b10100 3"
b10100 R
b10100 B"
b11 -"
b11 6
b11 m
b11 ?"
b100 ,"
b100 3
b100 >"
b100 Q"
b11111111111111111111111111111100 ."
b10000 v
b11111111111111111111111111111100 G
b11111111111111111111111111111100 o
b11111111111111111111111111111100 @"
04"
0Z
b0 +"
b0 5
b0 8"
b11000 }
b11000 Q
b11000 ("
b100100000001000010011 {
b100100000001000010011 H
b100100000001000010011 '"
b11100 |
b11100 /
b11100 I
b11100 p
b11100 z"
b111111 l
b111111 `
b111111 u"
1"
1$
#68
0"
0$
#70
b11111111111111111111111111111111 U"
b11111111111111111111111111111111 C"
b1 L"
b1 R"
b1 T"
b0 J"
b0 P"
b0 S"
b0 m"
b111111 )
b111111 C
b111111 $#
b11101 f"
b11101 Y
b11101 h
b11101 k"
0e"
0\
b1111110000000000000000 a"
b1111110000000000000000 @
b11111111111111111111111111000010 d"
b11111111111111111111111111000010 O
b11111111111111111111111111000010 i
b11111111111111111111111111000010 g"
b1 x"
b1 c
b1 <"
b0 w"
b0 _
b0 ;"
b10100 w
0n
b10100 v
b11000 u
b100100 x
b11111110110111111111001011101111 .
b11111110110111111111001011101111 J
b11111110110111111111001011101111 q
b11111110110111111111001011101111 {"
b1000 y"
b11110000 }"
b10 ~"
b10 ["
b10000 s
b1 g
1y
b100000 |
b100000 /
b100000 I
b100000 p
b100000 z"
1z
b10000 ~
b0 -"
b0 6
b0 m
b0 ?"
b11101 O"
b11101 X
b11101 `"
0H"
0[
b111111 G"
b111111 a
b111111 _"
b11111111111111111111111111000010 K"
b11111111111111111111111111000010 %
b11111111111111111111111111000010 >
b11111111111111111111111111000010 ]"
b11111111111111111111111111000010 |"
b11111111111111111111111111000010 ;
b11111111111111111111111111000010 Z"
b11111111111111111111111111000010 r"
1M"
1<
1N"
1S
b1 n"
b1 P
b1 q"
b10 p"
b10 b
b10 v"
b0 o"
b0 ^
b0 t"
b0 l
b0 `
b0 u"
1"
1$
#72
0"
0$
#74
b1 *
b1 D
b1 %#
b0 )
b0 C
b0 $#
b1000000000000000000000000 a"
b1000000000000000000000000 @
b11111111111111111111111111111111 d"
b11111111111111111111111111111111 O
b11111111111111111111111111111111 i
b11111111111111111111111111111111 g"
0r
b100 w
b100 v
b1000 u
b10100 s
b11111111 }"
b11 ~"
b11 ["
b10100 x
b100001000000010010011 .
b100001000000010010011 J
b100001000000010010011 q
b100001000000010010011 {"
b100 y"
b11111111111111111111111111000010 n"
b11111111111111111111111111000010 P
b11111111111111111111111111000010 q"
b0 p"
b0 b
b0 v"
0N"
0S
b1 G"
b1 a
b1 _"
b11111111111111111111111111111111 K"
b11111111111111111111111111111111 %
b11111111111111111111111111111111 >
b11111111111111111111111111111111 ]"
b11111111111111111111111111111111 |"
b11111111111111111111111111111111 ;
b11111111111111111111111111111111 Z"
b11111111111111111111111111111111 r"
b10000 |
b10000 /
b10000 I
b10000 p
b10000 z"
0z
b1 l
b1 `
b1 u"
1"
1$
#76
0"
0$
#78
b1000 w
b11000 s
b1000 v
b1100 u
0F
b100001000000000000000 &"
b100000000000 ""
b1000100000000000 %"
b1 $"
b1 V
b1 )"
b1 e
b1 T
b1 d
b1 h"
b11000 x
b11111110001100001110111011100011 .
b11111110001100001110111011100011 J
b11111110001100001110111011100011 q
b11111110001100001110111011100011 {"
b101 y"
0y
b10000 }
b10000 Q
b10000 ("
b100001000000010010011 {
b100001000000010010011 H
b100001000000010010011 '"
b10100 |
b10100 /
b10100 I
b10100 p
b10100 z"
b11111111111111111111111111111111 n"
b11111111111111111111111111111111 P
b11111111111111111111111111111111 q"
1"
1$
#80
0"
0$
#82
b1 J"
b1 P"
b1 S"
b10 U"
b10 C"
b1 w"
b1 _
b1 ;"
b1 l"
b11100 s
0A"
b11 #"
b10000 u
b10001 w
b11111110001100001110000000000000 &"
b11111111111111111111111111100011 !"
b11111111111111111111111111111100 ""
b11111111111100001110111111100010 %"
b11111111111111111111111111111101 $"
b11101 V
b11101 )"
b111111 g
b11 U
b11 f
b11 i"
b11100 x
b100100000001000010011 .
b100100000001000010011 J
b100100000001000010011 q
b100100000001000010011 {"
b110 y"
b1 6"
b1 W
b1 D"
b1 j"
b10000 3"
b10000 R
b10000 B"
b1 ."
b10001 v
b1 G
b1 o
b1 @"
b10 +"
b10 5
b10 8"
b1000 ,"
b1000 3
b1000 >"
b1000 Q"
14"
1Z
b10100 }
b10100 Q
b10100 ("
b11111110001100001110111011100011 {
b11111110001100001110111011100011 H
b11111110001100001110111011100011 '"
b11000 |
b11000 /
b11000 I
b11000 p
b11000 z"
b1 k
b1 ]
b1 t
b1 s"
1"
1$
#84
0"
0$
#86
b111111 L"
b111111 R"
b111111 T"
b10 J"
b10 P"
b10 S"
b10 m"
b0 *
b0 D
b0 %#
b1 )
b1 C
b1 $#
0=
b10000000000000000 a"
b10000000000000000 @
1V"
b11111111111111111111111111000011 U"
b11111111111111111111111111000011 C"
b1 f"
b1 Y
b1 h
b1 k"
1e"
1\
b10 d"
b10 O
b10 i
b10 g"
b111111 x"
b111111 c
b111111 <"
b10 w"
b10 _
b10 ;"
1F
1r
b100000 s
1n
b1 #"
b10100 u
1A"
b0 l"
b100100000000000000000 &"
b1 !"
b100 ""
b100000100000000000 %"
b100 $"
b100 V
b100 )"
b1 g
b1 U
b1 f
b1 i"
b0 e
b100 T
b100 d
b100 h"
b100000 x
b10000010010000000100011 .
b10000010010000000100011 J
b10000010010000000100011 q
b10000010010000000100011 {"
b111 y"
b10000 w
b0 }"
b10 ~"
b10 ["
b11000 }
b11000 Q
b11000 ("
b100100000001000010011 {
b100100000001000010011 H
b100100000001000010011 '"
b11100 |
b11100 /
b11100 I
b11100 p
b11100 z"
b11101 6"
b11101 W
b11101 D"
b11101 j"
b10100 3"
b10100 R
b10100 B"
b11 -"
b11 6
b11 m
b11 ?"
b100 ,"
b100 3
b100 >"
b100 Q"
b11111111111111111111111111111100 ."
b10000 v
b11111111111111111111111111111100 G
b11111111111111111111111111111100 o
b11111111111111111111111111111100 @"
04"
0Z
b0 +"
b0 5
b0 8"
b1 O"
b1 X
b1 `"
1H"
1[
b10 K"
b10 %
b10 >
b10 ]"
b10 |"
b10 ;
b10 Z"
b10 r"
0M"
0<
b1 o"
b1 ^
b1 t"
b111111 l
b111111 `
b111111 u"
1"
1$
#88
0"
0$
#90
b11111111111111111111111111111110 U"
b11111111111111111111111111111110 C"
b10 L"
b10 R"
b10 T"
b0 J"
b0 P"
b0 S"
b0 m"
b111111 *
b111111 D
b111111 %#
b0 )
b0 C
b0 $#
b11101 f"
b11101 Y
b11101 h
b11101 k"
0e"
0\
b111111000000000000000000000000 a"
b111111000000000000000000000000 @
b11111111111111111111111111000011 d"
b11111111111111111111111111000011 O
b11111111111111111111111111000011 i
b11111111111111111111111111000011 g"
b10 x"
b10 c
b10 <"
b0 w"
b0 _
b0 ;"
0n
b10100 w
b10100 v
b11000 u
b10000 s
b11110000 }"
b11 ~"
b11 ["
b100100 x
b11111110110111111111001011101111 .
b11111110110111111111001011101111 J
b11111110110111111111001011101111 q
b11111110110111111111001011101111 {"
b1000 y"
b10 n"
b10 P
b10 q"
b10 p"
b10 b
b10 v"
b0 o"
b0 ^
b0 t"
1N"
1S
b11101 O"
b11101 X
b11101 `"
0H"
0[
b111111 G"
b111111 a
b111111 _"
b11111111111111111111111111000011 K"
b11111111111111111111111111000011 %
b11111111111111111111111111000011 >
b11111111111111111111111111000011 ]"
b11111111111111111111111111000011 |"
b11111111111111111111111111000011 ;
b11111111111111111111111111000011 Z"
b11111111111111111111111111000011 r"
1M"
1<
b0 -"
b0 6
b0 m
b0 ?"
1y
b100000 |
b100000 /
b100000 I
b100000 p
b100000 z"
1z
b10 g
b1 l
b1 `
b1 u"
b0 k
b0 ]
b0 t
b0 s"
1"
1$
#92
0"
0$
#94
b0 *
b0 D
b0 %#
b10 )
b10 C
b10 $#
b100000000000000000 a"
b100000000000000000 @
b11111111111111111111111111111110 d"
b11111111111111111111111111111110 O
b11111111111111111111111111111110 i
b11111111111111111111111111111110 g"
b100 w
0r
b100 v
b1000 u
b10100 x
b100001000000010010011 .
b100001000000010010011 J
b100001000000010010011 q
b100001000000010010011 {"
b100 y"
b11111111 }"
b10 ~"
b10 ["
b10100 s
b10000 |
b10000 /
b10000 I
b10000 p
b10000 z"
0z
b10 G"
b10 a
b10 _"
b11111111111111111111111111111110 K"
b11111111111111111111111111111110 %
b11111111111111111111111111111110 >
b11111111111111111111111111111110 ]"
b11111111111111111111111111111110 |"
b11111111111111111111111111111110 ;
b11111111111111111111111111111110 Z"
b11111111111111111111111111111110 r"
0N"
0S
b11111111111111111111111111000011 n"
b11111111111111111111111111000011 P
b11111111111111111111111111000011 q"
b0 p"
b0 b
b0 v"
b10 l
b10 `
b10 u"
1"
1$
#96
0"
0$
