pipeline/4_stage_with_branchprediction/sim/riscv.vcd
$date
	Thu Jun 24 17:06:28 2021
$end
$version
	Icarus Verilog
$end
$timescale
	1s
$end
$scope module riscv_tb $end
$var wire 8 ! gpio [7:0] $end
$var wire 1 " out $end
$var reg 1 # clk $end
$var reg 1 $ rstn $end
$scope module fpga0 $end
$var wire 1 % clk $end
$var wire 32 & data_addr [31:0] $end
$var wire 32 ' data_rd [31:0] $end
$var wire 8 ( data_wr0 [7:0] $end
$var wire 8 ) data_wr1 [7:0] $end
$var wire 8 * data_wr2 [7:0] $end
$var wire 8 + data_wr3 [7:0] $end
$var wire 4 , datamem_wr [3:0] $end
$var wire 1 - gpio_en $end
$var wire 8 . gpio_o [7:0] $end
$var wire 32 / instr [31:0] $end
$var wire 32 0 instr_addr [31:0] $end
$var wire 1 1 mem_en $end
$var wire 1 2 rstn $end
$var reg 8 3 gpio_reg [7:0] $end
$scope module cpu0 $end
$var wire 2 4 alu_a [1:0] $end
$var wire 2 5 alu_b [1:0] $end
$var wire 4 6 alu_cntr [3:0] $end
$var wire 1 7 alu_ov_flag $end
$var wire 32 8 alu_result [31:0] $end
$var wire 1 9 alu_z_flag $end
$var wire 1 : br_taken $end
$var wire 3 ; branch_cntr [2:0] $end
$var wire 1 % clk $end
$var wire 32 < data_addr [31:0] $end
$var wire 32 = data_in [31:0] $end
$var wire 32 > data_out [31:0] $end
$var wire 8 ? data_out0 [7:0] $end
$var wire 8 @ data_out1 [7:0] $end
$var wire 8 A data_out2 [7:0] $end
$var wire 8 B data_out3 [7:0] $end
$var wire 4 C datamem_wr [3:0] $end
$var wire 1 D exe_wait $end
$var wire 1 E ide_wait $end
$var wire 32 F imm_data [31:0] $end
$var wire 32 G instr [31:0] $end
$var wire 32 H instr_addr [31:0] $end
$var wire 32 I instr_in [31:0] $end
$var wire 1 J jal $end
$var wire 1 K jalr $end
$var wire 3 L ld_cntr [2:0] $end
$var wire 3 M ld_cntr2 [2:0] $end
$var wire 2 N mem_to_reg [1:0] $end
$var wire 2 O mem_to_reg2 [1:0] $end
$var wire 32 P memtoreg_data [31:0] $end
$var wire 32 Q memtoreg_data_DH [31:0] $end
$var wire 7 R opcode [6:0] $end
$var wire 7 S opcode_exe2lsu [6:0] $end
$var wire 7 T opcode_id2exe [6:0] $end
$var wire 32 U pc [31:0] $end
$var wire 32 V pc_id2exe [31:0] $end
$var wire 32 W pc_if2id [31:0] $end
$var wire 1 X pcbranch $end
$var wire 1 Y reg_wr $end
$var wire 1 Z reg_wr1 $end
$var wire 1 [ reg_wr2 $end
$var wire 32 \ rs1 [31:0] $end
$var wire 5 ] rs1_addr [4:0] $end
$var wire 32 ^ rs1_fwd2exe [31:0] $end
$var wire 2 _ rs1_hazard [1:0] $end
$var wire 32 ` rs2 [31:0] $end
$var wire 5 a rs2_addr [4:0] $end
$var wire 32 b rs2_exe2lsu [31:0] $end
$var wire 32 c rs2_fwd2exe [31:0] $end
$var wire 2 d rs2_hazard [1:0] $end
$var wire 1 2 rstn $end
$var wire 2 e st_cntr [1:0] $end
$var wire 2 f st_cntr2 [1:0] $end
$var wire 1 g store_load_hazard $end
$var wire 32 h target_addr [31:0] $end
$var wire 32 i w_data [31:0] $end
$var wire 5 j wr_addr [4:0] $end
$var wire 5 k wr_addr_exe2lsu [4:0] $end
$var wire 5 l wr_addr_id2exe [4:0] $end
$var wire 5 m wr_addr_lsu2reg [4:0] $end
$scope module regset $end
$var wire 1 % clk $end
$var wire 5 n rs1_addr [4:0] $end
$var wire 32 o rs1_out [31:0] $end
$var wire 5 p rs2_addr [4:0] $end
$var wire 32 q rs2_out [31:0] $end
$var wire 1 2 rstn $end
$var wire 5 r w_addr [4:0] $end
$var wire 32 s w_data [31:0] $end
$var wire 1 [ write $end
$var integer 32 t i [31:0] $end
$var reg 32 u rs1_out_id2exe [31:0] $end
$var reg 32 v rs2_out_id2exe [31:0] $end
$upscope $end
$scope module fetchunit $end
$var wire 32 w bpu_addr [31:0] $end
$var wire 1 : bpu_branch $end
$var wire 3 x branch_cntr [2:0] $end
$var wire 1 y branchcnt $end
$var wire 1 % clk $end
$var wire 1 D exe_wait $end
$var wire 1 E ide_wait $end
$var wire 32 z imm [31:0] $end
$var wire 32 { instr_addr_o [31:0] $end
$var wire 32 | instr_in [31:0] $end
$var wire 1 J jal $end
$var wire 1 K jalr $end
$var wire 1 } pc_error $end
$var wire 32 ~ pc_if2bpu [31:0] $end
$var wire 32 !" pc_nxt [31:0] $end
$var wire 1 X pcbranch $end
$var wire 32 "" rs1 [31:0] $end
$var wire 1 2 rstn $end
$var wire 32 #" t1 [31:0] $end
$var wire 32 $" t2 [31:0] $end
$var wire 32 %" t3 [31:0] $end
$var wire 32 &" t4 [31:0] $end
$var reg 1 '" branch_encountered $end
$var reg 1 (" branch_predicted $end
$var reg 1 )" branch_predicted_d1 $end
$var reg 1 *" branch_predicted_d2 $end
$var reg 1 +" cpu_wait $end
$var reg 32 ," instr_reg [31:0] $end
$var reg 32 -" pc [31:0] $end
$var reg 32 ." pc_if2id [31:0] $end
$var reg 32 /" pc_next1 [31:0] $end
$var reg 32 0" pc_prev1 [31:0] $end
$var reg 32 1" pc_prev2 [31:0] $end
$var reg 32 2" pc_prev3 [31:0] $end
$upscope $end
$scope module decodeunit $end
$var wire 32 3" Iimm [31:0] $end
$var wire 32 4" SBimm [31:0] $end
$var wire 32 5" Shiftimm [31:0] $end
$var wire 32 6" Simm [31:0] $end
$var wire 32 7" UJimm [31:0] $end
$var wire 32 8" Uimm [31:0] $end
$var wire 1 % clk $end
$var wire 1 E ide_wait $end
$var wire 32 9" instr [31:0] $end
$var wire 7 :" opcode [6:0] $end
$var wire 32 ;" pc_if2id [31:0] $end
$var wire 1 2 rstn $end
$var wire 5 <" wr_addr [4:0] $end
$var reg 2 =" alu_a [1:0] $end
$var reg 2 >" alu_b [1:0] $end
$var reg 4 ?" alu_cntr [3:0] $end
$var reg 3 @" branch_cntr [2:0] $end
$var reg 32 A" imm [31:0] $end
$var reg 1 B" jal $end
$var reg 1 C" jalr $end
$var reg 3 D" ld_cntr_id2exe [2:0] $end
$var reg 2 E" memtoreg_id2exe [1:0] $end
$var reg 7 F" opcode_id2exe [6:0] $end
$var reg 32 G" pc_id2exe [31:0] $end
$var reg 1 H" reg_write $end
$var reg 2 I" st_cntr_id2exe [1:0] $end
$var reg 5 J" wr_addr_id2exe [4:0] $end
$upscope $end
$scope module exeunit $end
$var wire 2 K" alu_a [1:0] $end
$var wire 2 L" alu_b [1:0] $end
$var wire 4 M" alu_cntr [3:0] $end
$var wire 3 N" branch_cntr [2:0] $end
$var wire 1 % clk $end
$var wire 1 D exe_wait $end
$var wire 32 O" imm [31:0] $end
$var wire 3 P" ld_cntr_id2exe [2:0] $end
$var wire 2 Q" memtoreg_id2exe [1:0] $end
$var wire 7 R" opcode_id2exe [6:0] $end
$var wire 1 S" overflow $end
$var wire 32 T" pc_id2exe [31:0] $end
$var wire 32 U" reg_source1 [31:0] $end
$var wire 32 V" reg_source2 [31:0] $end
$var wire 1 Y reg_write_id2exe $end
$var wire 32 W" result [31:0] $end
$var wire 1 2 rstn $end
$var wire 2 X" st_cntr_id2exe [1:0] $end
$var wire 5 Y" wr_addr_id2exe [4:0] $end
$var wire 1 9 z_flag $end
$var reg 32 Z" a [31:0] $end
$var reg 32 [" alu_result [31:0] $end
$var reg 32 \" b [31:0] $end
$var reg 3 ]" ld_cntr_exe2lsu [2:0] $end
$var reg 2 ^" memtoreg_exe2lsu [1:0] $end
$var reg 7 _" opcode_exe2lsu [6:0] $end
$var reg 1 `" ov_flag $end
$var reg 1 a" pcbranch $end
$var reg 32 b" reg_source2_exe2lsu [31:0] $end
$var reg 1 c" reg_write_exe2lsu $end
$var reg 2 d" st_cntr_exe2lsu [1:0] $end
$var reg 1 e" stall1 $end
$var reg 1 f" stall2 $end
$var reg 5 g" wr_addr_exe2lsu [4:0] $end
$scope module alu_inst $end
$var wire 32 h" a [31:0] $end
$var wire 4 i" alu_cntr [3:0] $end
$var wire 32 j" b [31:0] $end
$var wire 1 S" o_flag $end
$var wire 32 k" unsigned_in_a [31:0] $end
$var wire 32 l" unsigned_in_b [31:0] $end
$var wire 1 9 z_flag $end
$var reg 32 m" alu_result [31:0] $end
$var reg 1 n" slt_reg $end
$upscope $end
$upscope $end
$scope module lsuunit $end
$var wire 32 o" alu_out_exe2lsu [31:0] $end
$var wire 1 7 alu_ov_flag_exe2lsu $end
$var wire 2 p" b_pos [1:0] $end
$var wire 1 % clk $end
$var wire 32 q" data_addr [31:0] $end
$var wire 32 r" datamem_rd_in [31:0] $end
$var wire 32 s" datamem_wr_in [31:0] $end
$var wire 3 t" ld_cntr [2:0] $end
$var wire 2 u" memtoreg [1:0] $end
$var wire 1 Z reg_write_exe2lsu $end
$var wire 1 2 rstn $end
$var wire 2 v" st_cntr [1:0] $end
$var wire 5 w" wr_addr_exe2lsu [4:0] $end
$var reg 32 x" datamem_wr_o [31:0] $end
$var reg 4 y" dmem_wr [3:0] $end
$var reg 32 z" reg_wrdata [31:0] $end
$var reg 1 {" reg_write_lsu2reg $end
$var reg 5 |" wr_addr_lsu2reg [4:0] $end
$upscope $end
$scope module datahardunit $end
$var wire 32 }" ALU_result [31:0] $end
$var wire 2 ~" St_cntr [1:0] $end
$var wire 1 % clk $end
$var wire 32 !# memtoreg_data [31:0] $end
$var wire 7 "# opcode [6:0] $end
$var wire 1 Y reg_wr1 $end
$var wire 1 [ reg_wr2 $end
$var wire 5 ## rs1_addr [4:0] $end
$var wire 2 $# rs1_haz [1:0] $end
$var wire 5 %# rs2_addr [4:0] $end
$var wire 2 &# rs2_haz [1:0] $end
$var wire 1 2 rstn $end
$var wire 1 '# store_load_haz $end
$var wire 5 (# wr_addr_id2exe [4:0] $end
$var wire 5 )# wr_addr_lsu2reg [4:0] $end
$var reg 32 *# ALU_result_reg [31:0] $end
$var reg 2 +# St_cntr_reg [1:0] $end
$var reg 32 ,# memtoreg_data_DH [31:0] $end
$var reg 2 -# rs1_hazard [1:0] $end
$var reg 2 .# rs2_hazard [1:0] $end
$var reg 1 /# store_load_hazard $end
$upscope $end
$scope module forwardingunit $end
$var wire 32 0# alu_result [31:0] $end
$var wire 1 % clk $end
$var wire 32 1# memtoreg_data [31:0] $end
$var wire 32 2# memtoreg_data_d [31:0] $end
$var wire 32 3# rs1 [31:0] $end
$var wire 2 4# rs1_hazard [1:0] $end
$var wire 32 5# rs2 [31:0] $end
$var wire 2 6# rs2_hazard [1:0] $end
$var wire 1 2 rstn $end
$var wire 1 g store_load_hazard $end
$var wire 32 7# store_value [31:0] $end
$var reg 32 8# rs1_fwd2exe [31:0] $end
$var reg 32 9# rs2_fwd2exe [31:0] $end
$var reg 32 :# store_value_reg [31:0] $end
$var reg 32 ;# w_data [31:0] $end
$upscope $end
$scope module bpu $end
$var wire 2 <# bhr_out [1:0] $end
$var wire 1 =# bp_reg_wr $end
$var wire 1 ># br_taken $end
$var wire 1 : br_taken_reg $end
$var wire 3 ?# branch_cntr [2:0] $end
$var wire 1 @# btb_wr $end
$var wire 1 % clk $end
$var wire 2 A# count [1:0] $end
$var wire 1 B# hit $end
$var wire 32 C# imm [31:0] $end
$var wire 32 D# pc [31:0] $end
$var wire 32 E# pc_id2exe [31:0] $end
$var wire 1 X pcbranch $end
$var wire 1 2 rstn $end
$var wire 32 F# target_address [31:0] $end
$var wire 32 G# target_address_reg [31:0] $end
$var reg 1 H# branch_cntr_d $end
$var reg 1 I# hit_d1 $end
$var reg 1 J# hit_d2 $end
$scope module btb $end
$var wire 1 % clk $end
$var wire 1 @# en $end
$var wire 1 B# hit $end
$var wire 32 K# imm [31:0] $end
$var wire 32 L# pc [31:0] $end
$var wire 32 M# pc_id2exe [31:0] $end
$var wire 1 2 rstn $end
$var reg 32 N# addr_out [31:0] $end
$var reg 1 O# hit_reg $end
$var integer 32 P# i [31:0] $end
$var reg 2 Q# wr_pos [1:0] $end
$upscope $end
$scope module bhr $end
$var wire 1 =# bhr_en $end
$var wire 1 X bhr_in $end
$var wire 1 % clk $end
$var wire 1 2 rstn $end
$var reg 2 R# bhr_out [1:0] $end
$upscope $end
$scope module pht $end
$var wire 1 % clk $end
$var wire 2 S# count [1:0] $end
$var wire 1 =# en $end
$var wire 2 T# pattern_addr [1:0] $end
$var wire 1 X pcbranch $end
$var wire 1 2 rstn $end
$var integer 32 U# i [31:0] $end
$upscope $end
$upscope $end
$upscope $end
$scope module rm0 $end
$var wire 32 V# addr [31:0] $end
$var wire 8 W# addrs [7:0] $end
$var wire 4 X# byte_add [3:0] $end
$var wire 1 % clk $end
$var wire 32 Y# data_rd [31:0] $end
$var wire 8 Z# data_wr0 [7:0] $end
$var wire 8 [# data_wr1 [7:0] $end
$var wire 8 \# data_wr2 [7:0] $end
$var wire 8 ]# data_wr3 [7:0] $end
$var wire 1 1 mem_en $end
$var wire 4 ^# mem_wr [3:0] $end
$var wire 1 2 rstn $end
$var integer 32 _# i [31:0] $end
$var integer 32 `# j [31:0] $end
$var integer 32 a# k [31:0] $end
$var integer 32 b# l [31:0] $end
$upscope $end
$scope module r0 $end
$var wire 10 c# addr [9:0] $end
$var wire 32 d# addr_in [31:0] $end
$var wire 1 % clk $end
$var wire 32 e# data_out [31:0] $end
$upscope $end
$upscope $end
$upscope $end
$enddefinitions $end
#0
$dumpvars
b1000000000000000000000100010011 e#
b0 d#
b0 c#
b100000000 b#
b100000000 a#
b100000000 `#
b100000000 _#
b0 ^#
b0 ]#
b0 \#
b0 [#
b0 Z#
b0 Y#
b0 X#
b0 W#
b0 V#
b100 U#
b0 T#
b1 S#
b0 R#
b0 Q#
b100 P#
1O#
b0 N#
b0 M#
b0 L#
b0 K#
0J#
0I#
0H#
b0 G#
b0 F#
b0 E#
b0 D#
b0 C#
0B#
b1 A#
0@#
b0 ?#
0>#
0=#
b0 <#
b0 ;#
b0 :#
b0 9#
b0 8#
b0 7#
b0 6#
bx 5#
b0 4#
bx 3#
b0 2#
b0 1#
b0 0#
0/#
b0 .#
b0 -#
b0 ,#
b0 +#
b0 *#
b0 )#
b0 (#
0'#
b0 &#
b0 %#
b0 $#
b0 ##
b0 "#
b0 !#
b0 ~"
b0 }"
b0 |"
0{"
b0 z"
b0 y"
b0 x"
b0 w"
b0 v"
b0 u"
b0 t"
b0 s"
b0 r"
b0 q"
b0 p"
b0 o"
0n"
b0 m"
b0 l"
b0 k"
b0 j"
b0 i"
b0 h"
b0 g"
0f"
0e"
b0 d"
0c"
b0 b"
0a"
0`"
b0 _"
b0 ^"
b0 ]"
b0 \"
b0 ["
b0 Z"
b0 Y"
b0 X"
b0 W"
b0 V"
b0 U"
b0 T"
0S"
b0 R"
b0 Q"
b0 P"
b0 O"
b0 N"
b0 M"
b0 L"
b0 K"
b0 J"
b0 I"
0H"
b0 G"
b0 F"
b0 E"
b0 D"
0C"
0B"
b0 A"
b0 @"
b0 ?"
b0 >"
b0 ="
b0 <"
b0 ;"
b0 :"
b0 9"
b0 8"
b0 7"
b0 6"
b0 5"
b0 4"
b0 3"
bx 2"
bx 1"
bx 0"
b0 /"
b0 ."
b0 -"
b0 ,"
0+"
0*"
0)"
0("
0'"
b100 &"
b11111111111111111111111111111000 %"
b11111111111111111111111111111000 $"
b11111111111111111111111111111000 #"
bx ""
b100 !"
b0 ~
0}
b1000000000000000000000100010011 |
b0 {
b0 z
0y
b0 x
b0 w
bx v
bx u
b100000 t
b0 s
b0 r
b0 q
b0 p
b0 o
b0 n
b0 m
b0 l
b0 k
b0 j
b0 i
b0 h
0g
b0 f
b0 e
b0 d
b0 c
b0 b
b0 a
bx `
b0 _
b0 ^
b0 ]
bx \
0[
0Z
0Y
0X
b0 W
b0 V
b0 U
b0 T
b0 S
b0 R
b0 Q
b0 P
b0 O
b0 N
b0 M
b0 L
0K
0J
b1000000000000000000000100010011 I
b0 H
b0 G
b0 F
0E
0D
b0 C
b0 B
b0 A
b0 @
b0 ?
b0 >
b0 =
b0 <
b0 ;
0:
19
b0 8
07
b0 6
b0 5
b0 4
b0 3
02
11
b0 0
b1000000000000000000000100010011 /
b0 .
0-
b0 ,
b0 +
b0 *
b0 )
b0 (
b0 '
b0 &
0%
0$
0#
0"
b0 !
$end
#2
b0 v
b0 `
b0 5#
b0 u
b0 \
b0 ""
b0 3#
b100000000 b#
b100000000 a#
b100000000 `#
b100000000 _#
b100 U#
b100 P#
b100000 t
1#
1%
#4
0#
0%
#6
b100000 t
b100 P#
b100 U#
b100000000 _#
b100000000 `#
b100000000 a#
b100000000 b#
1#
1%
#8
0#
0%
#10
b100000000 b#
b100000000 a#
b100000000 `#
b100000000 _#
b100 U#
b100 P#
b100000 t
1#
1%
#12
0#
0%
#14
b100000 t
b100 P#
b100 U#
b100000000 _#
b100000000 `#
b100000000 a#
b100000000 b#
1#
1%
#16
0#
0%
#18
b100000000 b#
b100000000 a#
b100000000 `#
b100000000 _#
b100 U#
b100 P#
b100000 t
1#
1%
#20
0#
0%
#22
b100000 t
b100 P#
b100 U#
b100000000 _#
b100000000 `#
b100000000 a#
b100000000 b#
1#
1%
#24
0#
0%
#26
b100000000 b#
b100000000 a#
b100000000 `#
b100000000 _#
b100 U#
b100 P#
b100000 t
1#
1%
#28
0#
0%
#30
b100000 t
b100 P#
b100 U#
b100000000 _#
b100000000 `#
b100000000 a#
b100000000 b#
1#
1%
#32
0#
0%
#34
b100000000 b#
b100000000 a#
b100000000 `#
b100000000 _#
b100 U#
b100 P#
b100000 t
1#
1%
#36
0#
0%
#38
b100000 t
b100 P#
b100 U#
b100000000 _#
b100000000 `#
b100000000 a#
b100000000 b#
1#
1%
#39
1B#
1$
12
#40
0#
0%
#42
b11111111111111111111111111111100 %"
b1000 !"
b11111111111111111111111111111100 $"
b11111111111111111111111111111100 #"
0B#
b1000000000000000000000000000000 8"
b10000000000 3"
b10000000010 4"
b10000000000 7"
b10000000010 6"
b10 j
b10 <"
b10011 R
b10011 :"
b1000 &"
0O#
b11111100000000000110010011 /
b11111100000000000110010011 I
b11111100000000000110010011 |
b11111100000000000110010011 e#
b1 c#
1I#
b1000000000000000000000100010011 ,"
b1000000000000000000000100010011 G
b1000000000000000000000100010011 9"
b0 0"
b100 -"
b100 U
b100 ~
b100 D#
b100 L#
b100 0
b100 H
b100 {
b100 d#
b0 U#
b100 P#
1#
1%
#44
0#
0%
#46
09
b10000000000 m"
b10000000000 W"
b10000000000 \"
b10000000000 j"
b10000000000 l"
b1100 !"
b11111 5"
b0 #"
b11111100000000000000000000 8"
b111111 3"
b100000100010 4"
b100000111110 7"
b100011 6"
b11 j
b11 <"
b11111 a
b11111 p
b11111 %#
b1100 &"
b1000010011 /
b1000010011 I
b1000010011 |
b1000010011 e#
b10 c#
b10000000000 %"
b100 ."
b100 W
b100 ;"
b11111100000000000110010011 ,"
b11111100000000000110010011 G
b11111100000000000110010011 9"
b0 1"
b100 0"
b1000 -"
b1000 U
b1000 ~
b1000 D#
b1000 L#
b1000 0
b1000 H
b1000 {
b1000 d#
b10011 F"
b10011 T
b10011 R"
b10 J"
b10 l
b10 Y"
b10 (#
b10000000000 A"
b10000000000 $"
b10000000000 F
b10000000000 z
b10000000000 O"
b10000000000 C#
b10000000000 K#
b1 E"
b1 N
b1 Q"
b11 ="
b11 4
b11 K"
b10 >"
b10 5
b10 L"
b1000 ?"
b1000 6
b1000 M"
b1000 i"
1H"
1Y
1J#
0I#
b100 P#
1#
1%
#48
0#
0%
#50
b10000000000 ;#
b10000000000 i
b10000000000 s
b111111 m"
b111111 W"
b10 |"
b10 m
b10 r
b10 )#
1{"
1[
b10000000000 z"
b10000000000 P
b10000000000 !#
b10000000000 1#
b111111 \"
b111111 j"
b111111 l"
b10000 !"
1-
b0 5"
b100 #"
b1000011 %"
b0 8"
b0 3"
b100 4"
b0 7"
b100 6"
b100 j
b100 <"
b0 a
b0 p
b0 %#
b10000 &"
b10010011 /
b10010011 I
b10010011 |
b10010011 e#
b11 c#
0J#
b10011 _"
b10011 S
b10011 "#
b10 g"
b10 k
b10 w"
1c"
1Z
b10000000000 ["
b10000000000 &
b10000000000 <
b10000000000 q"
b10000000000 V#
b10000000000 8
b10000000000 o"
b10000000000 }"
b10000000000 0#
b1 ^"
b1 O
b1 u"
b11 J"
b11 l
b11 Y"
b11 (#
b100 G"
b100 V
b100 T"
b100 E#
b100 M#
b111111 A"
b1000011 $"
b111111 F
b111111 z
b111111 O"
b111111 C#
b111111 K#
b1000 ."
b1000 W
b1000 ;"
b1000010011 ,"
b1000010011 G
b1000010011 9"
b0 2"
b100 1"
b1000 0"
b1100 -"
b1100 U
b1100 ~
b1100 D#
b1100 L#
b1100 0
b1100 H
b1100 {
b1100 d#
b100 P#
1#
1%
#52
0#
0%
#54
19
b0 m"
b0 W"
b111111 ;#
b111111 i
b111111 s
b0 \"
b0 j"
b0 l"
b11 |"
b11 m
b11 r
b11 )#
b111111 z"
b111111 P
b111111 !#
b111111 1#
b10100 !"
b1000 #"
0-
b100000000000 4"
b1 6"
b1 j
b1 <"
b10100 &"
b100001000000010010011 /
b100001000000010010011 I
b100001000000010010011 |
b100001000000010010011 e#
b100 c#
b1000 %"
b1111 W#
b11 X#
b11 p"
b1100 ."
b1100 W
b1100 ;"
b10010011 ,"
b10010011 G
b10010011 9"
b100 2"
b1000 1"
b1100 0"
b10000 -"
b10000 U
b10000 ~
b10000 D#
b10000 L#
b10000 0
b10000 H
b10000 {
b10000 d#
b100 J"
b100 l
b100 Y"
b100 (#
b1000 G"
b1000 V
b1000 T"
b1000 E#
b1000 M#
b0 A"
b1000 $"
b0 F
b0 z
b0 O"
b0 C#
b0 K#
b11 g"
b11 k
b11 w"
b111111 ["
b111111 &
b111111 <
b111111 q"
b111111 V#
b111111 8
b111111 o"
b111111 }"
b111111 0#
b10000000000 *#
b10000000000 ,#
b10000000000 Q
b10000000000 2#
b0 t
b100 P#
1#
1%
#56
0#
0%
#58
b0 ;#
b0 i
b0 s
b100 |"
b100 m
b100 r
b100 )#
b0 z"
b0 P
b0 !#
b0 1#
b1 &#
b1 $#
b1100 %"
b11000 !"
b1 5"
b1100 $"
b1100 #"
b0 W#
b0 X#
b0 p"
b100001000000000000000 8"
b1 3"
b1000100000000000 7"
b1 a
b1 p
b1 %#
b1 ]
b1 n
b1 ##
b11000 &"
b11111110001100001110111011100011 /
b11111110001100001110111011100011 I
b11111110001100001110111011100011 |
b11111110001100001110111011100011 e#
b101 c#
b111111 *#
b111111 ,#
b111111 Q
b111111 2#
b100 g"
b100 k
b100 w"
b0 ["
b0 &
b0 <
b0 q"
b0 V#
b0 8
b0 o"
b0 }"
b0 0#
b1 J"
b1 l
b1 Y"
b1 (#
b1100 G"
b1100 V
b1100 T"
b1100 E#
b1100 M#
b10000 ."
b10000 W
b10000 ;"
b100001000000010010011 ,"
b100001000000010010011 G
b100001000000010010011 9"
b1000 2"
b1100 1"
b10000 0"
b10100 -"
b10100 U
b10100 ~
b10100 D#
b10100 L#
b10100 0
b10100 H
b10100 {
b10100 d#
b100 P#
1#
1%
#60
0#
0%
#62
09
b1 m"
b1 W"
b1 \"
b1 j"
b1 l"
b1 |"
b1 m
b1 r
b1 )#
b0 &#
b11100 !"
b11 5"
b10000 #"
b11111110001100001110000000000000 8"
b11111111111111111111111111100011 3"
b11111111111111111111111111111100 4"
b11111111111100001110111111100010 7"
b11111111111111111111111111111101 6"
b11101 j
b11101 <"
b111111 q
b11 a
b11 p
b11 %#
b1100011 R
b1100011 :"
b11100 &"
b100100000001000010011 /
b100100000001000010011 I
b100100000001000010011 |
b100100000001000010011 e#
b110 c#
b10001 %"
b10100 ."
b10100 W
b10100 ;"
b11111110001100001110111011100011 ,"
b11111110001100001110111011100011 G
b11111110001100001110111011100011 9"
b1100 2"
b10000 1"
b10100 0"
b11000 -"
b11000 U
b11000 ~
b11000 D#
b11000 L#
b11000 0
b11000 H
b11000 {
b11000 d#
b10000 G"
b10000 V
b10000 T"
b10000 E#
b10000 M#
b1 A"
b10001 $"
b1 F
b1 z
b1 O"
b1 C#
b1 K#
b1 g"
b1 k
b1 w"
b0 *#
b0 ,#
b0 Q
b0 2#
b1 .#
b1 d
b1 6#
b1 -#
b1 _
b1 4#
b100 P#
1#
1%
#64
0#
0%
#66
09
b1 ;#
b1 i
b1 s
b1 Z"
b1 h"
b1 k"
1S"
b1 z"
b1 P
b1 !#
b1 1#
1n"
b11111111111111111111111111000010 m"
b11111111111111111111111111000010 W"
b111111 \"
b111111 j"
b111111 l"
b111111 9#
b111111 c
b111111 V"
b1 8#
b1 ^
b1 U"
1E
1}
b10 &#
1y
b100000 !"
b0 $#
b1 5"
b10100 #"
b1 X#
b1 p"
1@#
b10000 %"
b100100000000000000000 8"
b1 3"
b100 4"
b100000100000000000 7"
b100 6"
b100 j
b100 <"
b0 q
b1 a
b1 p
b1 %#
b100 ]
b100 n
b100 ##
b10011 R
b10011 :"
b100000 &"
b10000010010000000100011 /
b10000010010000000100011 I
b10000010010000000100011 |
b10000010010000000100011 e#
b111 c#
b0 .#
b0 d
b0 6#
b1 ["
b1 &
b1 <
b1 q"
b1 V#
b1 8
b1 o"
b1 }"
b1 0#
b1100011 F"
b1100011 T
b1100011 R"
b11101 J"
b11101 l
b11101 Y"
b11101 (#
b10100 G"
b10100 V
b10100 T"
b10100 E#
b10100 M#
b11 @"
b11 ;
b11 x
b11 N"
b11 ?#
b100 ?"
b100 6
b100 M"
b100 i"
b11111111111111111111111111111100 A"
b10000 $"
b11111111111111111111111111111100 F
b11111111111111111111111111111100 z
b11111111111111111111111111111100 O"
b11111111111111111111111111111100 C#
b11111111111111111111111111111100 K#
0H"
0Y
b0 >"
b0 5
b0 L"
b11000 ."
b11000 W
b11000 ;"
b100100000001000010011 ,"
b100100000001000010011 G
b100100000001000010011 9"
b10000 2"
b10100 1"
b11000 0"
b11100 -"
b11100 U
b11100 ~
b11100 D#
b11100 L#
b11100 0
b11100 H
b11100 {
b11100 d#
b111111 v
b111111 `
b111111 5#
b100 P#
1#
1%
#68
0#
0%
#70
1n"
b11111111111111111111111111111111 m"
b11111111111111111111111111111111 W"
b11111111111111111111111111000010 ;#
b11111111111111111111111111000010 i
b11111111111111111111111111000010 s
b1 \"
b1 j"
b1 l"
b0 Z"
b0 h"
b0 k"
b0 &#
b111111 *
b111111 A
b111111 \#
b11101 |"
b11101 m
b11101 r
b11101 )#
0{"
0[
b1111110000000000000000 x"
b1111110000000000000000 >
b11111111111111111111111111000010 z"
b11111111111111111111111111000010 P
b11111111111111111111111111000010 !#
b11111111111111111111111111000010 1#
b1 9#
b1 c
b1 V"
b0 8#
b0 ^
b0 U"
b10100 %"
0y
b10100 $"
b11000 #"
b10000 !"
b100100 &"
b11111110110111111111001011101111 /
b11111110110111111111001011101111 I
b11111110110111111111001011101111 |
b11111110110111111111001011101111 e#
b1000 c#
0@#
b11110000 W#
b10 X#
b10 p"
b1 q
1+"
b10100 2"
b11000 1"
b11100 0"
b100000 -"
b100000 U
b100000 ~
b100000 D#
b100000 L#
b100000 0
b100000 H
b100000 {
b100000 d#
1'"
b10000 /"
b0 @"
b0 ;
b0 x
b0 N"
b0 ?#
b1100011 _"
b1100011 S
b1100011 "#
b11101 g"
b11101 k
b11101 w"
0c"
0Z
b111111 b"
b111111 b
b111111 s"
b111111 7#
b11111111111111111111111111000010 ["
b11111111111111111111111111000010 &
b11111111111111111111111111000010 <
b11111111111111111111111111000010 q"
b11111111111111111111111111000010 V#
b11111111111111111111111111000010 8
b11111111111111111111111111000010 o"
b11111111111111111111111111000010 }"
b11111111111111111111111111000010 0#
1`"
17
1a"
1X
b1 *#
b1 ,#
b1 Q
b1 2#
b10 .#
b10 d
b10 6#
b0 -#
b0 _
b0 4#
b1 Q#
1H#
1=#
b0 v
b0 `
b0 5#
b100 P#
1#
1%
#72
0#
0%
#74
b11111111111111111111111111111111 ;#
b11111111111111111111111111111111 i
b11111111111111111111111111111111 s
b1 +
b1 B
b1 ]#
b0 *
b0 A
b0 \#
b1000000000000000000000000 x"
b1000000000000000000000000 >
b11111111111111111111111111111111 z"
b11111111111111111111111111111111 P
b11111111111111111111111111111111 !#
b11111111111111111111111111111111 1#
0}
b100 %"
b10100 !"
b100 $"
b1000 #"
b11111111 W#
b11 X#
b11 p"
b10100 &"
b100001000000010010011 /
b100001000000010010011 I
b100001000000010010011 |
b100001000000010010011 e#
b100 c#
0H#
0=#
b10 R#
b10 <#
b10 T#
b111111 :#
b11111111111111111111111111000010 *#
b11111111111111111111111111000010 ,#
b11111111111111111111111111000010 Q
b11111111111111111111111111000010 2#
b0 .#
b0 d
b0 6#
0a"
0X
b1 b"
b1 b
b1 s"
b1 7#
b11111111111111111111111111111111 ["
b11111111111111111111111111111111 &
b11111111111111111111111111111111 <
b11111111111111111111111111111111 q"
b11111111111111111111111111111111 V#
b11111111111111111111111111111111 8
b11111111111111111111111111111111 o"
b11111111111111111111111111111111 }"
b11111111111111111111111111111111 0#
b11000 2"
b11100 1"
b100000 0"
b10000 -"
b10000 U
b10000 ~
b10000 D#
b10000 L#
b10000 0
b10000 H
b10000 {
b10000 d#
0'"
b1 v
b1 `
b1 5#
b100 P#
1#
1%
#76
0#
0%
