pipeline/4_stage_with_branchprediction/sim/riscv.vcd
$date
	Mon Jun 14 15:00:25 2021
$end
$version
	Icarus Verilog
$end
$timescale
	1s
$end
$scope module riscv_tb $end
$var wire 8 ! gpio [7:0] $end
$var reg 1 " clk $end
$var reg 1 # rstn $end
$scope module fpga0 $end
$var wire 1 " clk $end
$var wire 8 $ gpio_o [7:0] $end
$var wire 1 % mem_en $end
$var wire 1 # rstn $end
$var wire 32 & instr_addr [31:0] $end
$var wire 32 ' instr [31:0] $end
$var wire 1 ( gpio_en $end
$var wire 4 ) datamem_wr [3:0] $end
$var wire 8 * data_wr3 [7:0] $end
$var wire 8 + data_wr2 [7:0] $end
$var wire 8 , data_wr1 [7:0] $end
$var wire 8 - data_wr0 [7:0] $end
$var wire 32 . data_rd [31:0] $end
$var wire 32 / data_addr [31:0] $end
$var reg 8 0 gpio_reg [7:0] $end
$scope module cpu0 $end
$var wire 1 " clk $end
$var wire 1 # rstn $end
$var wire 32 1 w_data [31:0] $end
$var wire 32 2 target_addr [31:0] $end
$var wire 1 3 store_load_hazard $end
$var wire 32 4 rs2_input [31:0] $end
$var wire 2 5 rs2_hazard [1:0] $end
$var wire 32 6 rs22 [31:0] $end
$var wire 32 7 rs2 [31:0] $end
$var wire 32 8 rs1_input [31:0] $end
$var wire 2 9 rs1_hazard [1:0] $end
$var wire 32 : rs1 [31:0] $end
$var wire 1 ; reg_wr2 $end
$var wire 1 < reg_wr1 $end
$var wire 1 = reg_wr $end
$var wire 5 > reg_addr33 [4:0] $end
$var wire 5 ? reg_addr32 [4:0] $end
$var wire 5 @ reg_addr31 [4:0] $end
$var wire 5 A reg_addr3 [4:0] $end
$var wire 5 B reg_addr2 [4:0] $end
$var wire 5 C reg_addr1 [4:0] $end
$var wire 1 D pcbranch $end
$var wire 32 E pc2 [31:0] $end
$var wire 32 F pc1 [31:0] $end
$var wire 32 G pc [31:0] $end
$var wire 7 H opcode_id2exe [6:0] $end
$var wire 7 I opcode_exe2lsu [6:0] $end
$var wire 7 J opcode [6:0] $end
$var wire 32 K memtoreg_data_DH [31:0] $end
$var wire 32 L memtoreg_data [31:0] $end
$var wire 2 M mem_to_reg2 [1:0] $end
$var wire 2 N mem_to_reg [1:0] $end
$var wire 1 O jalr $end
$var wire 1 P jal $end
$var wire 32 Q instr_in [31:0] $end
$var wire 32 R instr_addr [31:0] $end
$var wire 32 S instr [31:0] $end
$var wire 32 T imm_data [31:0] $end
$var wire 1 U ide_wait $end
$var wire 1 V exe_wait $end
$var wire 4 W datamem_wr [3:0] $end
$var wire 8 X data_out3 [7:0] $end
$var wire 8 Y data_out2 [7:0] $end
$var wire 8 Z data_out1 [7:0] $end
$var wire 8 [ data_out0 [7:0] $end
$var wire 32 \ data_out [31:0] $end
$var wire 32 ] data_in [31:0] $end
$var wire 32 ^ data_addr [31:0] $end
$var wire 1 _ br_taken $end
$var wire 1 ` alu_z_flag $end
$var wire 1 a alu_ov_flag $end
$var wire 32 b alu_out [31:0] $end
$var wire 2 c St_cntr2 [1:0] $end
$var wire 2 d St_cntr [1:0] $end
$var wire 3 e Ld_cntr2 [2:0] $end
$var wire 3 f Ld_cntr [2:0] $end
$var wire 3 g Branch_cntr [2:0] $end
$var wire 2 h ALUb [1:0] $end
$var wire 2 i ALUa [1:0] $end
$var wire 4 j ALU_cntr [3:0] $end
$scope module bpu $end
$var wire 1 k bp_reg_wr $end
$var wire 1 l br_taken $end
$var wire 1 _ br_taken_reg $end
$var wire 1 m btb_wr $end
$var wire 1 " clk $end
$var wire 1 # rstn $end
$var wire 32 n target_address_reg [31:0] $end
$var wire 32 o target_address [31:0] $end
$var wire 1 D pcbranch $end
$var wire 32 p pc_id2exe [31:0] $end
$var wire 32 q pc [31:0] $end
$var wire 32 r imm [31:0] $end
$var wire 1 s hit $end
$var wire 2 t count [1:0] $end
$var wire 2 u bhr_out [1:0] $end
$var wire 3 v Branch_cntr [2:0] $end
$var reg 1 w Branch_cntr_d $end
$var reg 1 x hit_d1 $end
$var reg 1 y hit_d2 $end
$scope module bhr $end
$var wire 1 k bhr_en $end
$var wire 1 " clk $end
$var wire 1 # rstn $end
$var wire 1 D bhr_in $end
$var reg 2 z bhr_out [1:0] $end
$upscope $end
$scope module btb $end
$var wire 1 " clk $end
$var wire 1 m en $end
$var wire 1 # rstn $end
$var wire 32 { pc_id2exe [31:0] $end
$var wire 32 | pc [31:0] $end
$var wire 32 } imm [31:0] $end
$var reg 32 ~ addr_out [31:0] $end
$var reg 1 s hit $end
$var reg 2 !" wr_pos [1:0] $end
$var integer 32 "" i [31:0] $end
$upscope $end
$scope module pht $end
$var wire 1 " clk $end
$var wire 2 #" count [1:0] $end
$var wire 1 k en $end
$var wire 2 $" pattern_addr [1:0] $end
$var wire 1 # rstn $end
$var wire 1 D pcbranch $end
$var integer 32 %" i [31:0] $end
$upscope $end
$upscope $end
$scope module datahardunit $end
$var wire 1 " clk $end
$var wire 5 &" reg_addr1 [4:0] $end
$var wire 5 '" reg_addr2 [4:0] $end
$var wire 2 (" store_load_haz [1:0] $end
$var wire 2 )" rs2_haz [1:0] $end
$var wire 2 *" rs1_haz [1:0] $end
$var wire 1 ; reg_wr2 $end
$var wire 1 = reg_wr1 $end
$var wire 5 +" reg_addr33 [4:0] $end
$var wire 5 ," reg_addr31 [4:0] $end
$var wire 7 -" opcode [6:0] $end
$var wire 32 ." memtoreg_data [31:0] $end
$var wire 2 /" St_cntr [1:0] $end
$var wire 32 0" ALU_result [31:0] $end
$var reg 32 1" ALU_result_reg [31:0] $end
$var reg 32 2" St_cntr_reg [31:0] $end
$var reg 32 3" memtoreg_data_DH [31:0] $end
$var reg 2 4" rs1_hazard [1:0] $end
$var reg 2 5" rs2_hazard [1:0] $end
$var reg 1 3 store_load_hazard $end
$upscope $end
$scope module decodeunit $end
$var wire 1 " clk $end
$var wire 7 6" opcode [6:0] $end
$var wire 5 7" wr_addr [4:0] $end
$var wire 32 8" pc_if2id [31:0] $end
$var wire 32 9" instr [31:0] $end
$var wire 1 U ide_wait $end
$var wire 32 :" Uimm [31:0] $end
$var wire 32 ;" UJimm [31:0] $end
$var wire 32 <" Simm [31:0] $end
$var wire 32 =" Shiftimm [31:0] $end
$var wire 32 >" SBimm [31:0] $end
$var wire 32 ?" Iimm [31:0] $end
$var reg 4 @" ALU_cntr [3:0] $end
$var reg 2 A" ALUa [1:0] $end
$var reg 2 B" ALUb [1:0] $end
$var reg 3 C" Branch_cntr [2:0] $end
$var reg 1 P Jal $end
$var reg 1 O Jalr $end
$var reg 3 D" Ld_cntr [2:0] $end
$var reg 2 E" Memtoreg [1:0] $end
$var reg 1 = RegW $end
$var reg 2 F" St_cntr [1:0] $end
$var reg 32 G" imm [31:0] $end
$var reg 7 H" opcode_id2exe [6:0] $end
$var reg 32 I" pc_id2exe [31:0] $end
$var reg 1 J" wait1 $end
$var reg 5 K" wr_addr_id2exe [4:0] $end
$upscope $end
$scope module exeunit $end
$var wire 2 L" ALUa [1:0] $end
$var wire 2 M" ALUb [1:0] $end
$var wire 3 N" Ld_cntr_id2exe [2:0] $end
$var wire 2 O" Memtoreg_id2exe [1:0] $end
$var wire 1 = RegW_id2exe $end
$var wire 2 P" St_cntr_id2exe [1:0] $end
$var wire 4 Q" alu_cntr [3:0] $end
$var wire 3 R" branch_cntr [2:0] $end
$var wire 1 " clk $end
$var wire 32 S" imm [31:0] $end
$var wire 7 T" opcode_id2exe [6:0] $end
$var wire 32 U" pc_id2exe [31:0] $end
$var wire 5 V" wr_addr_id2exe [4:0] $end
$var wire 1 ` z_flag $end
$var wire 32 W" result [31:0] $end
$var wire 1 X" overflow $end
$var wire 1 V exe_wait $end
$var wire 32 Y" Rd2 [31:0] $end
$var wire 32 Z" Rd1 [31:0] $end
$var reg 3 [" Ld_cntr_exe2lsu [2:0] $end
$var reg 2 \" Memtoreg_exe2lsu [1:0] $end
$var reg 32 ]" Rd2_exe2lsu [31:0] $end
$var reg 1 < RegW_exe2lsu $end
$var reg 2 ^" St_cntr_exe2lsu [1:0] $end
$var reg 32 _" a [31:0] $end
$var reg 32 `" alu_result [31:0] $end
$var reg 32 a" b [31:0] $end
$var reg 7 b" opcode_exe2lsu [6:0] $end
$var reg 1 a ov_flag $end
$var reg 1 D pcbranch $end
$var reg 1 c" stall1 $end
$var reg 1 d" stall2 $end
$var reg 5 e" wr_addr_exe2lsu [4:0] $end
$scope module alu_inst $end
$var wire 32 f" a [31:0] $end
$var wire 4 g" alu_cntr [3:0] $end
$var wire 32 h" b [31:0] $end
$var wire 32 i" unsigned_in_a [31:0] $end
$var wire 32 j" unsigned_in_b [31:0] $end
$var wire 1 ` z_flag $end
$var wire 1 X" o_flag $end
$var reg 32 k" alu_result [31:0] $end
$var reg 1 l" slt_reg $end
$upscope $end
$upscope $end
$scope module fetchunit $end
$var wire 3 m" Branch_cntr [2:0] $end
$var wire 32 n" bpu_addr [31:0] $end
$var wire 1 _ bpu_branch $end
$var wire 1 o" branchcnt $end
$var wire 1 " clk $end
$var wire 1 U ide_wait $end
$var wire 32 p" immediate [31:0] $end
$var wire 32 q" instr_addr_o [31:0] $end
$var wire 1 P jal $end
$var wire 1 O jalr $end
$var wire 1 r" pc_error $end
$var wire 1 D pcbranch $end
$var wire 1 # rstn $end
$var wire 32 s" t4 [31:0] $end
$var wire 32 t" t3 [31:0] $end
$var wire 32 u" t2 [31:0] $end
$var wire 32 v" t1 [31:0] $end
$var wire 32 w" rs1 [31:0] $end
$var wire 32 x" pc_nxt [31:0] $end
$var wire 32 y" instr_in [31:0] $end
$var wire 1 V exe_wait $end
$var reg 1 z" branch_predicted $end
$var reg 1 {" branch_predicted_d1 $end
$var reg 1 |" branch_predicted_d2 $end
$var reg 1 }" cpu_wait $end
$var reg 1 ~" i $end
$var reg 32 !# instr_reg [31:0] $end
$var reg 32 "# pc [31:0] $end
$var reg 32 ## pc_if2id [31:0] $end
$var reg 32 $# pc_next1 [31:0] $end
$var reg 32 %# pc_prev1 [31:0] $end
$var reg 32 &# pc_prev2 [31:0] $end
$var reg 32 '# pc_prev3 [31:0] $end
$upscope $end
$scope module forwardingunit $end
$var wire 1 " clk $end
$var wire 32 (# memtoreg_data [31:0] $end
$var wire 32 )# result [31:0] $end
$var wire 2 *# rs1_hazard [1:0] $end
$var wire 2 +# rs2_hazard [1:0] $end
$var wire 1 3 store_load_hazard $end
$var wire 32 ,# store_value [31:0] $end
$var wire 32 -# rs2 [31:0] $end
$var wire 32 .# rs1 [31:0] $end
$var reg 32 /# rs1_input [31:0] $end
$var reg 32 0# rs2_input [31:0] $end
$var reg 32 1# store_value_reg [31:0] $end
$var reg 32 2# w_data [31:0] $end
$upscope $end
$scope module lsuunit $end
$var wire 3 3# Ld_cntr [2:0] $end
$var wire 2 4# MemtoReg [1:0] $end
$var wire 1 < RegW_exe2lsu $end
$var wire 2 5# St_cntr [1:0] $end
$var wire 32 6# alu_out_exe2lsu [31:0] $end
$var wire 1 a alu_ov_flag_exe2lsu $end
$var wire 1 " clk $end
$var wire 32 7# data_addr [31:0] $end
$var wire 32 8# datamem_wr_in [31:0] $end
$var wire 5 9# wr_addr_exe2lsu [4:0] $end
$var wire 32 :# datamem_rd_in [31:0] $end
$var wire 2 ;# b_pos [1:0] $end
$var reg 1 ; RegW_lsu2reg $end
$var reg 32 <# datamem_wr_o [31:0] $end
$var reg 4 =# dmem_wr [3:0] $end
$var reg 32 ># memtoreg_data_DH [31:0] $end
$var reg 32 ?# reg_wrdata [31:0] $end
$var reg 5 @# wr_addr_lsu2reg [4:0] $end
$upscope $end
$scope module regset $end
$var wire 1 " clk $end
$var wire 5 A# rs1_addr [4:0] $end
$var wire 32 B# rs1_out [31:0] $end
$var wire 5 C# rs2_addr [4:0] $end
$var wire 32 D# rs2_out [31:0] $end
$var wire 1 # rstn $end
$var wire 5 E# w_addr [4:0] $end
$var wire 32 F# w_data [31:0] $end
$var wire 1 ; write $end
$var reg 32 G# rs1_out_id2exe [31:0] $end
$var reg 32 H# rs2_out_id2exe [31:0] $end
$var integer 32 I# i [31:0] $end
$upscope $end
$upscope $end
$scope module r0 $end
$var wire 32 J# addr_in [31:0] $end
$var wire 1 " clk $end
$var wire 32 K# data_out [31:0] $end
$var wire 10 L# addr [9:0] $end
$upscope $end
$scope module rm0 $end
$var wire 32 M# addr [31:0] $end
$var wire 1 " clk $end
$var wire 32 N# data_rd [31:0] $end
$var wire 8 O# data_wr0 [7:0] $end
$var wire 8 P# data_wr1 [7:0] $end
$var wire 8 Q# data_wr2 [7:0] $end
$var wire 8 R# data_wr3 [7:0] $end
$var wire 1 % mem_en $end
$var wire 4 S# mem_wr [3:0] $end
$var wire 1 # rstn $end
$var wire 4 T# byte_add [3:0] $end
$var wire 8 U# addrs [7:0] $end
$var integer 32 V# i [31:0] $end
$var integer 32 W# j [31:0] $end
$var integer 32 X# k [31:0] $end
$var integer 32 Y# l [31:0] $end
$var integer 32 Z# ram_size [31:0] $end
$upscope $end
$upscope $end
$upscope $end
$enddefinitions $end
#0
$dumpvars
b100000000 Z#
b100000000 Y#
b100000000 X#
b100000000 W#
b100000000 V#
bx U#
b0xx T#
bx S#
bx R#
bx Q#
bx P#
bx O#
bx N#
bx M#
b0 L#
b100100000000000100010011 K#
b0 J#
b100000 I#
bx H#
bx G#
bx F#
bx E#
b0 D#
b0 C#
b0 B#
b0 A#
bx @#
bx ?#
bx >#
bx =#
bx <#
bx ;#
bx :#
bx 9#
bx 8#
bx 7#
bx 6#
bx 5#
bx 4#
bx 3#
bx 2#
bx 1#
bx 0#
bx /#
bx .#
bx -#
bx ,#
bx +#
bx *#
bx )#
bx (#
bx '#
bx &#
bx %#
bx $#
bx ##
b0 "#
b0 !#
0~"
x}"
x|"
x{"
0z"
b100100000000000100010011 y"
bx x"
bx w"
b11111111111111111111111111111000 v"
bx u"
bx t"
b100 s"
xr"
b0 q"
bx p"
xo"
b0 n"
bx m"
xl"
bx k"
bx j"
bx i"
bx h"
bx g"
bx f"
bx e"
xd"
xc"
bx b"
bx a"
bx `"
bx _"
bx ^"
bx ]"
bx \"
bx ["
bx Z"
bx Y"
xX"
bx W"
bx V"
bx U"
bx T"
bx S"
bx R"
bx Q"
bx P"
bx O"
bx N"
bx M"
bx L"
bx K"
0J"
bx I"
bx H"
bx G"
bx F"
bx E"
bx D"
bx C"
bx B"
bx A"
bx @"
b0 ?"
b0 >"
b0 ="
b0 <"
b0 ;"
b0 :"
b0 9"
bx 8"
b0 7"
b0 6"
bx 5"
bx 4"
bx 3"
bx 2"
bx 1"
bx 0"
bx /"
bx ."
bx -"
bx ,"
bx +"
b0 *"
b0 )"
b0x ("
b0 '"
b0 &"
b100 %"
b0 $"
b1 #"
b100 ""
b0 !"
b0 ~
bx }
b0 |
bx {
b0 z
0y
0x
0w
bx v
b0 u
b1 t
1s
bx r
b0 q
bx p
b0 o
b0 n
xm
0l
0k
bx j
bx i
bx h
bx g
bx f
bx e
bx d
bx c
bx b
xa
x`
0_
bx ^
bx ]
bx \
bx [
bx Z
bx Y
bx X
bx W
xV
xU
bx T
b0 S
b0 R
b100100000000000100010011 Q
xP
xO
bx N
bx M
bx L
bx K
b0 J
bx I
bx H
b0 G
bx F
bx E
xD
b0 C
b0 B
b0 A
bx @
bx ?
bx >
x=
x<
x;
bx :
bx 9
bx 8
bx 7
bx 6
bx 5
bx 4
x3
b0 2
bx 1
b0 0
bx /
bx .
bx -
bx ,
bx +
bx *
bx )
x(
b100100000000000100010011 '
b0 &
1%
b0 $
0#
0"
b0 !
$end
#2
b0 a"
b0 h"
b0 j"
b0 _"
b0 f"
b0 i"
b0 4
b0 Y"
b0 0#
b0 8
b0 Z"
b0 /#
b100 x"
0s
b0 7
b0 -#
b0 H#
b0 :
b0 w"
b0 .#
b0 G#
b0 H
b0 H"
b0 T"
b0 @
b0 ,"
b0 K"
b0 V"
0d"
0c"
0D
b0xx 2"
b0 5
b0 5"
b0 +#
b0 9
b0 4"
b0 *#
b100000000 Y#
b100000000 X#
b100000000 W#
b100000000 V#
b100 %"
b100 ""
b100000 I#
1"
#4
0"
#6
b0 >
b0 +"
b0 @#
b0 E#
b0 ("
b0 I
b0 -"
b0 b"
b0 ?
b0 e"
b0 9#
b0 6
b0 ]"
b0 ,#
b0 8#
b100000 I#
b100 ""
b100 %"
b100000000 V#
b100000000 W#
b100000000 X#
b100000000 Y#
1"
#8
0"
#10
b0 1
b0 2#
b0 F#
03
b0 1#
b100000000 Y#
b100000000 X#
b100000000 W#
b100000000 V#
b100 %"
b100 ""
b100000 I#
1"
#12
0"
#14
b100000 I#
b100 ""
b100 %"
b100000000 V#
b100000000 W#
b100000000 X#
b100000000 Y#
1"
#16
0"
#18
b100000000 Y#
b100000000 X#
b100000000 W#
b100000000 V#
b100 %"
b100 ""
b100000 I#
1"
#20
0"
#22
b100000 I#
b100 ""
b100 %"
b100000000 V#
b100000000 W#
b100000000 X#
b100000000 Y#
1"
#24
0"
#26
b100000000 Y#
b100000000 X#
b100000000 W#
b100000000 V#
b100 %"
b100 ""
b100000 I#
1"
#28
0"
#30
b100000 I#
b100 ""
b100 %"
b100000000 V#
b100000000 W#
b100000000 X#
b100000000 Y#
1"
#32
0"
#34
b100000000 Y#
b100000000 X#
b100000000 W#
b100000000 V#
b100 %"
b100 ""
b100000 I#
1"
#36
0"
#38
b100000 I#
b100 ""
b100 %"
b100000000 V#
b100000000 W#
b100000000 X#
b100000000 Y#
1"
#39
1#
#40
0"
#42
b1001 ="
b1000 x"
b10 <"
b100000001000 ;"
b10 >"
b1001 ?"
b100100000000000000000000 :"
b10 A
b10 7"
b1001 B
b1001 '"
b1001 C#
b10011 J
b10011 6"
b11111111111111111111111111111100 v"
b1000100010001000100011 '
b1000100010001000100011 Q
b1000100010001000100011 y"
b1000100010001000100011 K#
b1 L#
b100 ""
xk
xw
0}"
b0 F
b0 8"
b0 ##
b100100000000000100010011 S
b100100000000000100010011 9"
b100100000000000100010011 !#
b0 %#
0{"
b1000 s"
b100 &
b100 R
b100 q"
b100 J#
b100 G
b100 q
b100 |
b100 "#
1"
#44
0"
#46
0`
b1001 a"
b1001 h"
b1001 j"
b1001 W"
b1001 k"
0U
0r"
b1 )"
0V
0o"
b10 ="
b1100 x"
0X"
b100 <"
b100010000000000010 ;"
b100 >"
b10 ?"
b1000100010000000000000 :"
b100 A
b100 7"
b10 B
b10 '"
b10 C#
b100 C
b100 &"
b100 A#
b100011 J
b100011 6"
b0 v"
b10000100010001010000011 '
b10000100010001010000011 Q
b10000100010001010000011 y"
b10000100010001010000011 K#
b10 L#
b100 ""
b1001 t"
0m
b100 F
b100 8"
b100 ##
b1000100010001000100011 S
b1000100010001000100011 9"
b1000100010001000100011 !#
b0 &#
b100 %#
0|"
b1100 s"
b1000 &
b1000 R
b1000 q"
b1000 J#
b1000 G
b1000 q
b1000 |
b1000 "#
b10011 H
b10011 H"
b10011 T"
b10 @
b10 ,"
b10 K"
b10 V"
b0 E
b0 p
b0 {
b0 I"
b0 U"
b1001 u"
b1001 T
b1001 r
b1001 }
b1001 G"
b1001 S"
b1001 p"
b1 N
b1 E"
b1 O"
b11 i
b11 A"
b11 L"
b10 h
b10 B"
b10 M"
b1000 j
b1000 @"
b1000 Q"
b1000 g"
b0 f
b0 D"
b0 N"
b0 d
b0 F"
b0 P"
1=
b0 g
b0 v
b0 C"
b0 R"
b0 m"
0P
0O
1"
#48
0"
#50
b100 W"
b100 k"
b0 *
b0 X
b0 R#
b0 +
b0 Y
b0 Q#
b0 ,
b0 Z
b0 P#
b0 -
b0 [
b0 O#
b0 \
b0 <#
b100 a"
b100 h"
b100 j"
b10 >
b10 +"
b10 @#
b10 E#
1;
b0 )
b0 W
b0 =#
b0 S#
b1001 L
b1001 ."
b1001 ?#
b1001 4
b1001 Y"
b1001 0#
b100 ="
b10000 x"
b0 )"
0(
b101 <"
b100010000000000100 ;"
b100000000100 >"
b100 ?"
b10000100010000000000000 :"
b101 A
b101 7"
b100 B
b100 '"
b100 C#
b11 J
b11 6"
b100 v"
b0 '
b0 Q
b0 y"
b0 K#
b11 L#
b100 ""
b1000 t"
b10 U#
b0 .
b0 ]
b0 :#
b0 N#
b1 T#
b1 ;#
0k
0w
b1000 F
b1000 8"
b1000 ##
b10000100010001010000011 S
b10000100010001010000011 9"
b10000100010001010000011 !#
b0 '#
b100 &#
b1000 %#
b10000 s"
b1100 &
b1100 R
b1100 q"
b1100 J#
b1100 G
b1100 q
b1100 |
b1100 "#
b100011 H
b100011 H"
b100011 T"
b100 @
b100 ,"
b100 K"
b100 V"
b100 E
b100 p
b100 {
b100 I"
b100 U"
b1000 u"
b100 T
b100 r
b100 }
b100 G"
b100 S"
b100 p"
b1 d
b1 F"
b1 P"
0=
b0 N
b0 E"
b0 O"
b10011 I
b10011 -"
b10011 b"
b10 ?
b10 e"
b10 9#
1<
b1001 /
b1001 ^
b1001 7#
b1001 M#
b1001 b
b1001 0"
b1001 `"
b1001 )#
b1001 6#
0a
b0 c
b0 /"
b0 ^"
b0 5#
b0 e
b0 ["
b0 3#
b1 M
b1 \"
b1 4#
b1 5
b1 5"
b1 +#
1"
#52
0"
#54
b1001 -
b1001 [
b1001 O#
b100 >
b100 +"
b100 @#
b100 E#
0;
b1001 \
b1001 <#
b0 4
b0 Y"
b0 0#
b1111 )
b1111 W
b1111 =#
b1111 S#
b0 ="
b1100 t"
b10100 x"
b0 )"
b0 *"
b0 <"
b0 ;"
b0 >"
b0 ?"
b0 :"
b0 A
b0 7"
b0 B
b0 '"
b0 C#
b0 C
b0 &"
b0 A#
b0 J
b0 6"
b1100 u"
b1000 v"
b100 L#
b100 ""
b1 U#
b0 T#
b0 ;#
b1100 F
b1100 8"
b1100 ##
b0 S
b0 9"
b0 !#
b100 '#
b1000 &#
b1100 %#
b10100 s"
b10000 &
b10000 R
b10000 q"
b10000 J#
b10000 G
b10000 q
b10000 |
b10000 "#
b1001 1"
b0 2"
b1001 K
b1001 3"
b1001 (#
b0 5
b0 5"
b0 +#
b100011 I
b100011 -"
b100011 b"
b100 ?
b100 e"
b100 9#
0<
b1001 6
b1001 ]"
b1001 ,#
b1001 8#
b100 /
b100 ^
b100 7#
b100 M#
b100 b
b100 0"
b100 `"
b100 )#
b100 6#
b1 c
b1 /"
b1 ^"
b1 5#
b0 M
b0 \"
b0 4#
b11 H
b11 H"
b11 T"
b101 @
b101 ,"
b101 K"
b101 V"
b1000 E
b1000 p
b1000 {
b1000 I"
b1000 U"
b0 d
b0 F"
b0 P"
1=
b11 N
b11 E"
b11 O"
1"
#56
0"
#58
b0 -
b0 [
b0 O#
b101 >
b101 +"
b101 @#
b101 E#
1;
b0 \
b0 <#
b0 )
b0 W
b0 =#
b0 S#
b1001 1
b1001 2#
b1001 F#
b10000 t"
b11000 x"
b10000 u"
b1100 v"
b101 L#
b100 ""
b1 ("
b1001 .
b1001 ]
b1001 :#
b1001 N#
b10000 F
b10000 8"
b10000 ##
b1000 '#
b1100 &#
b10000 %#
b11000 s"
b10100 &
b10100 R
b10100 q"
b10100 J#
b10100 G
b10100 q
b10100 |
b10100 "#
b0 H
b0 H"
b0 T"
b0 @
b0 ,"
b0 K"
b0 V"
b1100 E
b1100 p
b1100 {
b1100 I"
b1100 U"
b11 I
b11 -"
b11 b"
b101 ?
b101 e"
b101 9#
1<
b0 6
b0 ]"
b0 ,#
b0 8#
b0 c
b0 /"
b0 ^"
b0 5#
b11 M
b11 \"
b11 4#
b100 1"
b1 2"
b1001 1#
1"
#60
0"
#62
b0 >
b0 +"
b0 @#
b0 E#
b10100 t"
b11100 x"
b10100 u"
b10000 v"
b110 L#
b100 ""
b0 ("
b10100 F
b10100 8"
b10100 ##
b1100 '#
b10000 &#
b10100 %#
b11100 s"
b11000 &
b11000 R
b11000 q"
b11000 J#
b11000 G
b11000 q
b11000 |
b11000 "#
b0 1#
b0 2"
13
b0 I
b0 -"
b0 b"
b0 ?
b0 e"
b0 9#
b10000 E
b10000 p
b10000 {
b10000 I"
b10000 U"
1"
#64
0"
#66
b0 1
b0 2#
b0 F#
b11000 t"
b100000 x"
b11000 u"
b10100 v"
b111 L#
b100 ""
b11000 F
b11000 8"
b11000 ##
b10000 '#
b10100 &#
b11000 %#
b100000 s"
b11100 &
b11100 R
b11100 q"
b11100 J#
b11100 G
b11100 q
b11100 |
b11100 "#
b10100 E
b10100 p
b10100 {
b10100 I"
b10100 U"
03
1"
#68
0"
#70
b11100 t"
b100100 x"
b11100 u"
b11000 v"
b1000 L#
b100 ""
b11100 F
b11100 8"
b11100 ##
b10100 '#
b11000 &#
b11100 %#
b100100 s"
b100000 &
b100000 R
b100000 q"
b100000 J#
b100000 G
b100000 q
b100000 |
b100000 "#
b11000 E
b11000 p
b11000 {
b11000 I"
b11000 U"
1"
#72
0"
#74
b100000 t"
b101000 x"
b100000 u"
b11100 v"
b1001 L#
b100 ""
b100000 F
b100000 8"
b100000 ##
b11000 '#
b11100 &#
b100000 %#
b101000 s"
b100100 &
b100100 R
b100100 q"
b100100 J#
b100100 G
b100100 q
b100100 |
b100100 "#
b11100 E
b11100 p
b11100 {
b11100 I"
b11100 U"
1"
#76
0"
#78
b100100 t"
b101100 x"
b100100 u"
b100000 v"
b1010 L#
b100 ""
b100100 F
b100100 8"
b100100 ##
b11100 '#
b100000 &#
b100100 %#
b101100 s"
b101000 &
b101000 R
b101000 q"
b101000 J#
b101000 G
b101000 q
b101000 |
b101000 "#
b100000 E
b100000 p
b100000 {
b100000 I"
b100000 U"
1"
#80
0"
#82
b101000 t"
b110000 x"
b101000 u"
b100100 v"
b1011 L#
b100 ""
b101000 F
b101000 8"
b101000 ##
b100000 '#
b100100 &#
b101000 %#
b110000 s"
b101100 &
b101100 R
b101100 q"
b101100 J#
b101100 G
b101100 q
b101100 |
b101100 "#
b100100 E
b100100 p
b100100 {
b100100 I"
b100100 U"
1"
#84
0"
#86
b101100 t"
b110100 x"
b101100 u"
b101000 v"
b1100 L#
b100 ""
b101100 F
b101100 8"
b101100 ##
b100100 '#
b101000 &#
b101100 %#
b110100 s"
b110000 &
b110000 R
b110000 q"
b110000 J#
b110000 G
b110000 q
b110000 |
b110000 "#
b101000 E
b101000 p
b101000 {
b101000 I"
b101000 U"
1"
#88
0"
#90
b110000 t"
b111000 x"
b110000 u"
b101100 v"
b1101 L#
b100 ""
b110000 F
b110000 8"
b110000 ##
b101000 '#
b101100 &#
b110000 %#
b111000 s"
b110100 &
b110100 R
b110100 q"
b110100 J#
b110100 G
b110100 q
b110100 |
b110100 "#
b101100 E
b101100 p
b101100 {
b101100 I"
b101100 U"
1"
#92
0"
#94
b110100 t"
b111100 x"
b110100 u"
b110000 v"
b1110 L#
b100 ""
b110100 F
b110100 8"
b110100 ##
b101100 '#
b110000 &#
b110100 %#
b111100 s"
b111000 &
b111000 R
b111000 q"
b111000 J#
b111000 G
b111000 q
b111000 |
b111000 "#
b110000 E
b110000 p
b110000 {
b110000 I"
b110000 U"
1"
#96
0"
#98
b111000 t"
b1000000 x"
b111000 u"
b110100 v"
b1111 L#
b100 ""
b111000 F
b111000 8"
b111000 ##
b110000 '#
b110100 &#
b111000 %#
b1000000 s"
b111100 &
b111100 R
b111100 q"
b111100 J#
b111100 G
b111100 q
b111100 |
b111100 "#
b110100 E
b110100 p
b110100 {
b110100 I"
b110100 U"
1"
#100
0"
#102
b111100 t"
b1000100 x"
b111100 u"
b111000 v"
b10000 L#
b100 ""
b111100 F
b111100 8"
b111100 ##
b110100 '#
b111000 &#
b111100 %#
b1000100 s"
b1000000 &
b1000000 R
b1000000 q"
b1000000 J#
b1000000 G
b1000000 q
b1000000 |
b1000000 "#
b111000 E
b111000 p
b111000 {
b111000 I"
b111000 U"
1"
#104
0"
#106
b1000000 t"
b1001000 x"
b1000000 u"
b111100 v"
b10001 L#
b100 ""
b1000000 F
b1000000 8"
b1000000 ##
b111000 '#
b111100 &#
b1000000 %#
b1001000 s"
b1000100 &
b1000100 R
b1000100 q"
b1000100 J#
b1000100 G
b1000100 q
b1000100 |
b1000100 "#
b111100 E
b111100 p
b111100 {
b111100 I"
b111100 U"
1"
#108
0"
#110
b1000100 t"
b1001100 x"
b1000100 u"
b1000000 v"
b10010 L#
b100 ""
b1000100 F
b1000100 8"
b1000100 ##
b111100 '#
b1000000 &#
b1000100 %#
b1001100 s"
b1001000 &
b1001000 R
b1001000 q"
b1001000 J#
b1001000 G
b1001000 q
b1001000 |
b1001000 "#
b1000000 E
b1000000 p
b1000000 {
b1000000 I"
b1000000 U"
1"
#112
0"
#114
b1001000 t"
b1010000 x"
b1001000 u"
b1000100 v"
b10011 L#
b100 ""
b1001000 F
b1001000 8"
b1001000 ##
b1000000 '#
b1000100 &#
b1001000 %#
b1010000 s"
b1001100 &
b1001100 R
b1001100 q"
b1001100 J#
b1001100 G
b1001100 q
b1001100 |
b1001100 "#
b1000100 E
b1000100 p
b1000100 {
b1000100 I"
b1000100 U"
1"
#116
0"
#118
b1001100 t"
b1010100 x"
b1001100 u"
b1001000 v"
b10100 L#
b100 ""
b1001100 F
b1001100 8"
b1001100 ##
b1000100 '#
b1001000 &#
b1001100 %#
b1010100 s"
b1010000 &
b1010000 R
b1010000 q"
b1010000 J#
b1010000 G
b1010000 q
b1010000 |
b1010000 "#
b1001000 E
b1001000 p
b1001000 {
b1001000 I"
b1001000 U"
1"
#120
0"
