single_cycle/sim/riscv.vcd
$date
	Wed Jun  2 19:56:40 2021
$end
$version
	Icarus Verilog
$end
$timescale
	1s
$end
$scope module riscv_tb $end
$var wire 8 ! gpio [7:0] $end
$var reg 1 " clk $end
$var reg 1 # rstn $end
$scope module fpga0 $end
$var wire 1 " clk $end
$var wire 8 $ gpio_o [7:0] $end
$var wire 1 % mem_en $end
$var wire 1 # rstn $end
$var wire 32 & instr_addr [31:0] $end
$var wire 32 ' instr [31:0] $end
$var wire 1 ( gpio_en $end
$var wire 4 ) datamem_wr [3:0] $end
$var wire 8 * data_wr3 [7:0] $end
$var wire 8 + data_wr2 [7:0] $end
$var wire 8 , data_wr1 [7:0] $end
$var wire 8 - data_wr0 [7:0] $end
$var wire 32 . data_rd [31:0] $end
$var wire 32 / data_addr [31:0] $end
$var reg 8 0 gpio_reg [7:0] $end
$scope module cpu0 $end
$var wire 1 " clk $end
$var wire 1 # rstn $end
$var wire 32 1 rs2 [31:0] $end
$var wire 32 2 rs1 [31:0] $end
$var wire 1 3 reg_wr $end
$var wire 5 4 reg_addr3 [4:0] $end
$var wire 5 5 reg_addr2 [4:0] $end
$var wire 5 6 reg_addr1 [4:0] $end
$var wire 1 7 pcbranch $end
$var wire 32 8 memtoreg_data [31:0] $end
$var wire 2 9 mem_to_reg [1:0] $end
$var wire 1 : jalr $end
$var wire 1 ; jal $end
$var wire 32 < instr_in [31:0] $end
$var wire 32 = instr_addr [31:0] $end
$var wire 32 > imm_data [31:0] $end
$var wire 4 ? datamem_wr [3:0] $end
$var wire 8 @ data_out3 [7:0] $end
$var wire 8 A data_out2 [7:0] $end
$var wire 8 B data_out1 [7:0] $end
$var wire 8 C data_out0 [7:0] $end
$var wire 32 D data_out [31:0] $end
$var wire 32 E data_in [31:0] $end
$var wire 32 F data_addr [31:0] $end
$var wire 1 G alu_z_flag $end
$var wire 1 H alu_ov_flag $end
$var wire 32 I alu_out [31:0] $end
$var wire 2 J St_cntr [1:0] $end
$var wire 3 K Ld_cntr [2:0] $end
$var wire 3 L Branch_cntr [2:0] $end
$var wire 2 M ALUb [1:0] $end
$var wire 2 N ALUa [1:0] $end
$var wire 4 O ALU_cntr [3:0] $end
$scope module decodeunit $end
$var wire 1 " clk $end
$var wire 32 P instr [31:0] $end
$var wire 32 Q Uimm [31:0] $end
$var wire 32 R UJimm [31:0] $end
$var wire 32 S Simm [31:0] $end
$var wire 32 T Shiftimm [31:0] $end
$var wire 32 U SBimm [31:0] $end
$var wire 32 V Iimm [31:0] $end
$var reg 4 W ALU_cntr [3:0] $end
$var reg 2 X ALUa [1:0] $end
$var reg 2 Y ALUb [1:0] $end
$var reg 3 Z Branch_cntr [2:0] $end
$var reg 1 ; Jal $end
$var reg 1 : Jalr $end
$var reg 3 [ Ld_cntr [2:0] $end
$var reg 2 \ Memtoreg [1:0] $end
$var reg 1 3 RegW $end
$var reg 2 ] St_cntr [1:0] $end
$var reg 32 ^ imm [31:0] $end
$upscope $end
$scope module exeunit $end
$var wire 2 _ ALUa [1:0] $end
$var wire 2 ` ALUb [1:0] $end
$var wire 4 a alu_cntr [3:0] $end
$var wire 3 b branch_cntr [2:0] $end
$var wire 32 c imm [31:0] $end
$var wire 1 G z_flag $end
$var wire 32 d pc [31:0] $end
$var wire 1 H ov_flag $end
$var wire 32 e alu_result [31:0] $end
$var wire 32 f Rd2 [31:0] $end
$var wire 32 g Rd1 [31:0] $end
$var reg 32 h a [31:0] $end
$var reg 32 i b [31:0] $end
$var reg 1 7 pcbranch $end
$scope module alu_inst $end
$var wire 32 j a [31:0] $end
$var wire 4 k alu_cntr [3:0] $end
$var wire 32 l b [31:0] $end
$var wire 32 m unsigned_in_a [31:0] $end
$var wire 32 n unsigned_in_b [31:0] $end
$var wire 1 G z_flag $end
$var wire 1 H o_flag $end
$var reg 32 o alu_result [31:0] $end
$var reg 1 p slt_reg $end
$upscope $end
$upscope $end
$scope module fetchunit $end
$var wire 1 " clk $end
$var wire 32 q immediate [31:0] $end
$var wire 32 r instr_addr_o [31:0] $end
$var wire 1 ; jal $end
$var wire 1 : jalr $end
$var wire 1 7 pcbranch $end
$var wire 1 # rstn $end
$var wire 32 s t3 [31:0] $end
$var wire 32 t t2 [31:0] $end
$var wire 32 u t1 [31:0] $end
$var wire 32 v rs1 [31:0] $end
$var wire 32 w pc_nxt [31:0] $end
$var reg 32 x pc [31:0] $end
$upscope $end
$scope module lsuunit $end
$var wire 3 y Ld_cntr [2:0] $end
$var wire 2 z MemtoReg [1:0] $end
$var wire 2 { St_cntr [1:0] $end
$var wire 32 | alu_out [31:0] $end
$var wire 1 H alu_ov_flag $end
$var wire 1 " clk $end
$var wire 32 } data_addr [31:0] $end
$var wire 32 ~ datamem_wr_in [31:0] $end
$var wire 32 !" datamem_rd_in [31:0] $end
$var wire 2 "" b_pos [1:0] $end
$var reg 32 #" datamem_wr_o [31:0] $end
$var reg 4 $" dmem_wr [3:0] $end
$var reg 32 %" reg_wrdata [31:0] $end
$upscope $end
$scope module regset $end
$var wire 1 " clk $end
$var wire 5 &" rs1_addr [4:0] $end
$var wire 32 '" rs1_out [31:0] $end
$var wire 5 (" rs2_addr [4:0] $end
$var wire 32 )" rs2_out [31:0] $end
$var wire 1 # rstn $end
$var wire 5 *" w_addr [4:0] $end
$var wire 32 +" w_data [31:0] $end
$var wire 1 3 write $end
$var integer 32 ," i [31:0] $end
$upscope $end
$upscope $end
$scope module r0 $end
$var wire 32 -" addr_in [31:0] $end
$var wire 1 " clk $end
$var wire 32 ." data_out [31:0] $end
$var wire 10 /" addr [9:0] $end
$upscope $end
$scope module rm0 $end
$var wire 32 0" addr [31:0] $end
$var wire 1 " clk $end
$var wire 32 1" data_rd [31:0] $end
$var wire 8 2" data_wr0 [7:0] $end
$var wire 8 3" data_wr1 [7:0] $end
$var wire 8 4" data_wr2 [7:0] $end
$var wire 8 5" data_wr3 [7:0] $end
$var wire 1 % mem_en $end
$var wire 4 6" mem_wr [3:0] $end
$var wire 1 # rstn $end
$var wire 4 7" byte_add [3:0] $end
$var wire 8 8" addrs [7:0] $end
$var integer 32 9" i [31:0] $end
$var integer 32 :" j [31:0] $end
$var integer 32 ;" k [31:0] $end
$var integer 32 <" l [31:0] $end
$var integer 32 =" ram_size [31:0] $end
$upscope $end
$upscope $end
$upscope $end
$enddefinitions $end
#0
$dumpvars
b100000000 ="
b100000000 <"
b100000000 ;"
b100000000 :"
b100000000 9"
b0 8"
b1 7"
b0 6"
b0 5"
b0 4"
b0 3"
b0 2"
b0 1"
b1 0"
b0 /"
b100000000001100010011 ."
b0 -"
b100000 ,"
b1 +"
b110 *"
b0 )"
b1 ("
b0 '"
b0 &"
b1 %"
b0 $"
b0 #"
b1 ""
b0 !"
b0 ~
b1 }
b1 |
b0 {
b1 z
b0 y
b0 x
b100 w
b0 v
b0 u
b100 t
b100 s
b0 r
b1 q
xp
b1 o
b1 n
b0 m
b1 l
b1000 k
b0 j
b1 i
b0 h
b0 g
b0 f
b1 e
b0 d
b1 c
b0 b
b1000 a
b10 `
b11 _
b1 ^
b0 ]
b1 \
b0 [
b0 Z
b10 Y
b11 X
b1000 W
b1 V
b110 U
b1 T
b110 S
b100000000000 R
b100000000000000000000 Q
b100000000001100010011 P
b1000 O
b11 N
b10 M
b0 L
b0 K
b0 J
b1 I
0H
0G
b1 F
b0 E
b0 D
b0 C
b0 B
b0 A
b0 @
b0 ?
b1 >
b0 =
b100000000001100010011 <
0;
0:
b1 9
b1 8
07
b0 6
b1 5
b110 4
13
b0 2
b0 1
b0 0
b1 /
b0 .
b0 -
b0 ,
b0 +
b0 *
b0 )
0(
b100000000001100010011 '
b0 &
1%
b0 $
0#
0"
b0 !
$end
#5
b100000000 <"
b100000000 ;"
b100000000 :"
b100000000 9"
b100000 ,"
1"
#10
0"
#15
b100000 ,"
b100000000 9"
b100000000 :"
b100000000 ;"
b100000000 <"
1"
#20
0"
#25
b100000000 <"
b100000000 ;"
b100000000 :"
b100000000 9"
b100000 ,"
1"
#30
0"
#35
b100000 ,"
b100000000 9"
b100000000 :"
b100000000 ;"
b100000000 <"
1"
#40
0"
#45
b100000000 <"
b100000000 ;"
b100000000 :"
b100000000 9"
b100000 ,"
1"
#50
0"
#55
b100000 ,"
b100000000 9"
b100000000 :"
b100000000 ;"
b100000000 <"
1"
#60
0"
#65
b100000000 <"
b100000000 ;"
b100000000 :"
b100000000 9"
b100000 ,"
1"
#70
0"
#75
b100000 ,"
b100000000 9"
b100000000 :"
b100000000 ;"
b100000000 <"
1"
#80
0"
#85
b100000000 <"
b100000000 ;"
b100000000 :"
b100000000 9"
b100000 ,"
1"
#90
0"
#95
b100000 ,"
b100000000 9"
b100000000 :"
b100000000 ;"
b100000000 <"
1"
#96
1#
#100
0"
#105
b11 8
b11 %"
b11 +"
b11 7"
b11 ""
b11 /
b11 F
b11 }
b11 0"
b11 I
b11 e
b11 o
b11 |
b11 i
b11 l
b11 n
b11 >
b11 ^
b11 c
b11 q
b1000 w
b11 T
b1000 s
b100 S
b100000000010 R
b100 U
b11 V
b1100000000000000000000 Q
b100 4
b100 *"
b11 5
b11 ("
b100 u
b1100000000001000010011 '
b1100000000001000010011 <
b1100000000001000010011 P
b1100000000001000010011 ."
b1 /"
b100 &
b100 =
b100 d
b100 r
b100 -"
b100 x
1"
#110
0"
#115
b100 8
b100 %"
b100 +"
b1 8"
b0 7"
b0 ""
b1 i
b1 l
b1 n
b100 /
b100 F
b100 }
b100 0"
b100 I
b100 e
b100 o
b100 |
b1 >
b1 ^
b1 c
b1 q
b11 h
b11 j
b11 m
b1100 w
b1 T
b1100 s
b100000100000000000 R
b1 V
b100100000000000000000 Q
b1 5
b1 ("
b11 2
b11 g
b11 v
b11 '"
b100 6
b100 &"
b1000 u
b100100000001000010011 '
b100100000001000010011 <
b100100000001000010011 P
b100100000001000010011 ."
b10 /"
b1000 &
b1000 =
b1000 d
b1000 r
b1000 -"
b1000 x
1"
#120
0"
#125
b100 8
b100 %"
b100 +"
b0 7"
b0 ""
b0 i
b0 l
b0 n
b100 /
b100 F
b100 }
b100 0"
b100 I
b100 e
b100 o
b100 |
b0 M
b0 Y
b0 `
b100 h
b100 j
b100 m
b10000 w
b0 T
b10000 s
b11 S
b100000000000000000 R
b100000000010 U
b0 V
b100000000000000000 Q
b11 4
b11 *"
b0 5
b0 ("
b1100 u
b100000000110110011 '
b100000000110110011 <
b100000000110110011 P
b100000000110110011 ."
b11 /"
b1100 &
b1100 =
b1100 d
b1100 r
b1100 -"
b1100 x
b100 2
b100 g
b100 v
b100 '"
1"
#130
0"
#135
b11 8
b11 %"
b11 +"
b0 8"
b11 7"
b11 ""
b11 /
b11 F
b11 }
b11 0"
b11 I
b11 e
b11 o
b11 |
b11111111111111111111111111111111 i
b11111111111111111111111111111111 l
b11111111111111111111111111111111 n
b11111111111111111111111111111111 >
b11111111111111111111111111111111 ^
b11111111111111111111111111111111 c
b11111111111111111111111111111111 q
b10 M
b10 Y
b10 `
b10100 w
b11111 T
b10100 s
b11111111111111111111111111100010 S
b11111111111100011000111111111110 R
b11111111111111111111011111100010 U
b11111111111111111111111111111111 V
b11111111111100011000000000000000 Q
b10 4
b10 *"
b11111 5
b11111 ("
b11 6
b11 &"
b10000 u
b11111111111100011000000100010011 '
b11111111111100011000000100010011 <
b11111111111100011000000100010011 P
b11111111111100011000000100010011 ."
b100 /"
b10000 &
b10000 =
b10000 d
b10000 r
b10000 -"
b10000 x
1"
#140
0"
#145
b0 +
b0 A
b0 4"
b1 8"
b111 8
b111 %"
b111 +"
b11 7"
b11 ""
b111 /
b111 F
b111 }
b111 0"
b111 I
b111 e
b111 o
b111 |
b100 i
b100 l
b100 n
b100 *
b100 @
b100 5"
b100000000000000000000000000 D
b100000000000000000000000000 #"
b11 h
b11 j
b11 m
b0 M
b0 Y
b0 `
b11000 w
b11 T
b11000 s
b101 S
b10000100000000010 R
b100000000100 U
b11 V
b1100010000000000000000 Q
b101 4
b101 *"
b100 1
b100 f
b100 ~
b100 )"
b11 5
b11 ("
b11 2
b11 g
b11 v
b11 '"
b10 6
b10 &"
b10100 u
b1100010000001010110011 '
b1100010000001010110011 <
b1100010000001010110011 P
b1100010000001010110011 ."
b101 /"
b10100 &
b10100 =
b10100 d
b10100 r
b10100 -"
b10100 x
1"
#150
0"
#155
b10 7"
b10 ""
b10 8
b10 %"
b10 +"
b0 8"
b10 /
b10 F
b10 }
b10 0"
b10 I
b10 e
b10 o
b10 |
b0 *
b0 @
b0 5"
b11111111111111111111111111111111 i
b11111111111111111111111111111111 l
b11111111111111111111111111111111 n
b0 D
b0 #"
b11111111111111111111111111111111 >
b11111111111111111111111111111111 ^
b11111111111111111111111111111111 c
b11111111111111111111111111111111 q
b10 M
b10 Y
b10 `
b11100 w
b11111 T
b11100 s
b11111111111111111111111111100010 S
b11111111111100010000111111111110 R
b11111111111111111111011111100010 U
b11111111111111111111111111111111 V
b11111111111100010000000000000000 Q
b10 4
b10 *"
b0 1
b0 f
b0 ~
b0 )"
b11111 5
b11111 ("
b11000 u
b11111111111100010000000100010011 '
b11111111111100010000000100010011 <
b11111111111100010000000100010011 P
b11111111111100010000000100010011 ."
b110 /"
b11000 &
b11000 =
b11000 d
b11000 r
b11000 -"
b11000 x
1"
#160
0"
#165
b111 ,
b111 B
b111 3"
b10 8"
b1001 8
b1001 %"
b1001 +"
b1 7"
b1 ""
b111 i
b111 l
b111 n
b1001 /
b1001 F
b1001 }
b1001 0"
b1001 I
b1001 e
b1001 o
b1001 |
b0 +
b0 A
b0 4"
b11100000000 D
b11100000000 #"
b0 M
b0 Y
b0 `
b10 h
b10 j
b10 m
b100000 w
b101 T
b100000 s
b101 S
b10000100000000100 R
b100000000100 U
b101 V
b10100010000000000000000 Q
b101 4
b101 *"
b111 1
b111 f
b111 ~
b111 )"
b101 5
b101 ("
b11100 u
b10100010000001010110011 '
b10100010000001010110011 <
b10100010000001010110011 P
b10100010000001010110011 ."
b111 /"
b11100 &
b11100 =
b11100 d
b11100 r
b11100 -"
b11100 x
b10 2
b10 g
b10 v
b10 '"
1"
#170
0"
#175
b10 *
b10 @
b10 5"
b11111111111111111111111111111111 8
b11111111111111111111111111111111 %"
b11111111111111111111111111111111 +"
b11111111 8"
b11 7"
b11 ""
17
1p
b11111111111111111111111111111111 /
b11111111111111111111111111111111 F
b11111111111111111111111111111111 }
b11111111111111111111111111111111 0"
b11111111111111111111111111111111 I
b11111111111111111111111111111111 e
b11111111111111111111111111111111 o
b11111111111111111111111111111111 |
1H
b0 ,
b0 B
b0 3"
b1 h
b1 j
b1 m
b11 L
b11 Z
b11 b
b100 O
b100 W
b100 a
b100 k
b11111111111111111111111111111000 >
b11111111111111111111111111111000 ^
b11111111111111111111111111111000 c
b11111111111111111111111111111000 q
03
b10 i
b10 l
b10 n
b10000000000000000000000000 D
b10000000000000000000000000 #"
b11000 w
b10 T
b100100 s
b11111111111111111111111111111001 S
b11111111111100110110011111100010 R
b11111111111111111111111111111000 U
b11111111111111111111111111100010 V
b11111110001000110110000000000000 Q
b11001 4
b11001 *"
b10 5
b10 ("
b1 2
b1 g
b1 v
b1 '"
b110 6
b110 &"
b100000 u
b11111110001000110110110011100011 '
b11111110001000110110110011100011 <
b11111110001000110110110011100011 P
b11111110001000110110110011100011 ."
b1000 /"
b10 1
b10 f
b10 ~
b10 )"
b100000 &
b100000 =
b100000 d
b100000 r
b100000 -"
b100000 x
1"
#180
0"
#185
b1 8
b1 %"
b1 +"
b0 8"
b1 7"
b1 ""
b1 /
b1 F
b1 }
b1 0"
b1 I
b1 e
b1 o
b1 |
07
0H
b0 *
b0 @
b0 5"
b11111111111111111111111111111111 i
b11111111111111111111111111111111 l
b11111111111111111111111111111111 n
b0 D
b0 #"
b10 h
b10 j
b10 m
b11111111111111111111111111111111 >
b11111111111111111111111111111111 ^
b11111111111111111111111111111111 c
b11111111111111111111111111111111 q
b10 M
b10 Y
b10 `
b1000 O
b1000 W
b1000 a
b1000 k
13
b0 L
b0 Z
b0 b
b11111 T
b11100 s
b11111111111111111111111111100010 S
b11111111111100010000111111111110 R
b11111111111111111111011111100010 U
b11111111111111111111111111111111 V
b11111111111100010000000000000000 Q
b10 4
b10 *"
b0 1
b0 f
b0 ~
b0 )"
b11111 5
b11111 ("
b10 2
b10 g
b10 v
b10 '"
b10 6
b10 &"
b11000 u
b11100 w
b11111111111100010000000100010011 '
b11111111111100010000000100010011 <
b11111111111100010000000100010011 P
b11111111111100010000000100010011 ."
b110 /"
b11000 &
b11000 =
b11000 d
b11000 r
b11000 -"
b11000 x
1"
#190
0"
#195
b1001 +
b1001 A
b1001 4"
b0 -
b0 C
b0 2"
b10 8"
b1010 8
b1010 %"
b1010 +"
0G
b10 7"
b10 ""
b1001 i
b1001 l
b1001 n
b1010 /
b1010 F
b1010 }
b1010 0"
b1010 I
b1010 e
b1010 o
b1010 |
b0 ,
b0 B
b0 3"
b10010000000000000000 D
b10010000000000000000 #"
b0 M
b0 Y
b0 `
b1 h
b1 j
b1 m
b100000 w
b101 T
b100000 s
b101 S
b10000100000000100 R
b100000000100 U
b101 V
b10100010000000000000000 Q
b101 4
b101 *"
b1001 1
b1001 f
b1001 ~
b1001 )"
b101 5
b101 ("
b11100 u
b10100010000001010110011 '
b10100010000001010110011 <
b10100010000001010110011 P
b10100010000001010110011 ."
b111 /"
b1 2
b1 g
b1 v
b1 '"
b11100 &
b11100 =
b11100 d
b11100 r
b11100 -"
b11100 x
1"
#200
0"
#205
b1 -
b1 C
b1 2"
b0 8
b0 %"
b0 +"
1G
b0 8"
b0 7"
b0 ""
07
0p
b0 /
b0 F
b0 }
b0 0"
b0 I
b0 e
b0 o
b0 |
0H
b0 +
b0 A
b0 4"
b11 L
b11 Z
b11 b
b100 O
b100 W
b100 a
b100 k
b11111111111111111111111111111000 >
b11111111111111111111111111111000 ^
b11111111111111111111111111111000 c
b11111111111111111111111111111000 q
03
b1 i
b1 l
b1 n
b1 D
b1 #"
b100100 w
b10 T
b100100 s
b11111111111111111111111111111001 S
b11111111111100110110011111100010 R
b11111111111111111111111111111000 U
b11111111111111111111111111100010 V
b11111110001000110110000000000000 Q
b11001 4
b11001 *"
b10 5
b10 ("
b110 6
b110 &"
b100000 u
b11111110001000110110110011100011 '
b11111110001000110110110011100011 <
b11111110001000110110110011100011 P
b11111110001000110110110011100011 ."
b1000 /"
b100000 &
b100000 =
b100000 d
b100000 r
b100000 -"
b100000 x
b1 1
b1 f
b1 ~
b1 )"
1"
#210
0"
#215
b1010 8
b1010 %"
b1010 +"
0G
b10 8"
b10 7"
b10 ""
b1010 /
b1010 F
b1010 }
b1010 0"
b1010 I
b1010 e
b1010 o
b1010 |
b0 -
b0 C
b0 2"
b0 i
b0 l
b0 n
b0 D
b0 #"
b1010 h
b1010 j
b1010 m
b0 >
b0 ^
b0 c
b0 q
b10 M
b10 Y
b10 `
b1000 O
b1000 W
b1000 a
b1000 k
13
b0 L
b0 Z
b0 b
b101000 w
b0 T
b101000 s
b111 S
b101000000000000000 R
b100000000110 U
b0 V
b101000000000000000 Q
b111 4
b111 *"
b0 1
b0 f
b0 ~
b0 )"
b0 5
b0 ("
b1010 2
b1010 g
b1010 v
b1010 '"
b101 6
b101 &"
b100100 u
b101000001110010011 '
b101000001110010011 <
b101000001110010011 P
b101000001110010011 ."
b1001 /"
b100100 &
b100100 =
b100100 d
b100100 r
b100100 -"
b100100 x
1"
#220
0"
#225
b101100 8
b101100 %"
b101100 +"
0G
b1011 8"
b0 7"
b0 ""
b101100 /
b101100 F
b101100 }
b101100 0"
b101100 I
b101100 e
b101100 o
b101100 |
b100 i
b100 l
b100 n
b11111111111111111111111111100000 t
b101000 h
b101000 j
b101000 m
b11111111111111111111111111100000 >
b11111111111111111111111111100000 ^
b11111111111111111111111111100000 c
b11111111111111111111111111100000 q
b10 N
b10 X
b10 _
b11 M
b11 Y
b11 `
1;
b1000 w
b1 T
b1000 s
b11111111111111111111111111101000 S
b11111111111111111111111111100000 R
b11111111111111111111011111101000 U
b11111111111111111111111111100001 V
b11111110000111111111000000000000 Q
b1000 4
b1000 *"
b1 5
b1 ("
b0 2
b0 g
b0 v
b0 '"
b11111 6
b11111 &"
b101000 u
b11111110000111111111010001101111 '
b11111110000111111111010001101111 <
b11111110000111111111010001101111 P
b11111110000111111111010001101111 ."
b1010 /"
b101000 &
b101000 =
b101000 d
b101000 r
b101000 -"
b101000 x
1"
#230
0"
#235
b1 7"
b1 ""
b101 8
b101 %"
b101 +"
b1 8"
b1 i
b1 l
b1 n
b101 /
b101 F
b101 }
b101 0"
b101 I
b101 e
b101 o
b101 |
b100 t
b1 >
b1 ^
b1 c
b1 q
b11 N
b11 X
b11 _
b10 M
b10 Y
b10 `
0;
b100 h
b100 j
b100 m
b1100 w
b1100 s
b100 S
b100000100000000000 R
b100 U
b1 V
b100100000000000000000 Q
b100 4
b100 *"
b100 2
b100 g
b100 v
b100 '"
b100 6
b100 &"
b1000 u
b100100000001000010011 '
b100100000001000010011 <
b100100000001000010011 P
b100100000001000010011 ."
b10 /"
b1000 &
b1000 =
b1000 d
b1000 r
b1000 -"
b1000 x
1"
#240
0"
#245
b101 8
b101 %"
b101 +"
b1 7"
b1 ""
b0 i
b0 l
b0 n
b101 /
b101 F
b101 }
b101 0"
b101 I
b101 e
b101 o
b101 |
b0 M
b0 Y
b0 `
b101 h
b101 j
b101 m
b10000 w
b0 T
b10000 s
b11 S
b100000000000000000 R
b100000000010 U
b0 V
b100000000000000000 Q
b11 4
b11 *"
b0 5
b0 ("
b1100 u
b100000000110110011 '
b100000000110110011 <
b100000000110110011 P
b100000000110110011 ."
b11 /"
b1100 &
b1100 =
b1100 d
b1100 r
b1100 -"
b1100 x
b101 2
b101 g
b101 v
b101 '"
1"
#250
0"
#255
b100 8
b100 %"
b100 +"
b0 7"
b0 ""
b100 /
b100 F
b100 }
b100 0"
b100 I
b100 e
b100 o
b100 |
b11111111111111111111111111111111 i
b11111111111111111111111111111111 l
b11111111111111111111111111111111 n
b11111111111111111111111111111111 >
b11111111111111111111111111111111 ^
b11111111111111111111111111111111 c
b11111111111111111111111111111111 q
b10 M
b10 Y
b10 `
b10100 w
b11111 T
b10100 s
b11111111111111111111111111100010 S
b11111111111100011000111111111110 R
b11111111111111111111011111100010 U
b11111111111111111111111111111111 V
b11111111111100011000000000000000 Q
b10 4
b10 *"
b11111 5
b11111 ("
b11 6
b11 &"
b10000 u
b11111111111100011000000100010011 '
b11111111111100011000000100010011 <
b11111111111100011000000100010011 P
b11111111111100011000000100010011 ."
b100 /"
b10000 &
b10000 =
b10000 d
b10000 r
b10000 -"
b10000 x
1"
#260
0"
#265
b101 ,
b101 B
b101 3"
b0 *
b0 @
b0 5"
b1001 8
b1001 %"
b1001 +"
b10 8"
b1 7"
b1 ""
b1001 /
b1001 F
b1001 }
b1001 0"
b1001 I
b1001 e
b1001 o
b1001 |
b101 i
b101 l
b101 n
b0 -
b0 C
b0 2"
b10100000000 D
b10100000000 #"
b100 h
b100 j
b100 m
b0 M
b0 Y
b0 `
b11000 w
b11 T
b11000 s
b101 S
b10000100000000010 R
b100000000100 U
b11 V
b1100010000000000000000 Q
b101 4
b101 *"
b101 1
b101 f
b101 ~
b101 )"
b11 5
b11 ("
b100 2
b100 g
b100 v
b100 '"
b10 6
b10 &"
b10100 u
b1100010000001010110011 '
b1100010000001010110011 <
b1100010000001010110011 P
b1100010000001010110011 ."
b101 /"
b10100 &
b10100 =
b10100 d
b10100 r
b10100 -"
b10100 x
1"
#270
0"
#275
b11 8
b11 %"
b11 +"
b0 8"
b11 7"
b11 ""
b11 /
b11 F
b11 }
b11 0"
b11 I
b11 e
b11 o
b11 |
b0 ,
b0 B
b0 3"
b11111111111111111111111111111111 i
b11111111111111111111111111111111 l
b11111111111111111111111111111111 n
b0 D
b0 #"
b11111111111111111111111111111111 >
b11111111111111111111111111111111 ^
b11111111111111111111111111111111 c
b11111111111111111111111111111111 q
b10 M
b10 Y
b10 `
b11100 w
b11111 T
b11100 s
b11111111111111111111111111100010 S
b11111111111100010000111111111110 R
b11111111111111111111011111100010 U
b11111111111111111111111111111111 V
b11111111111100010000000000000000 Q
b10 4
b10 *"
b0 1
b0 f
b0 ~
b0 )"
b11111 5
b11111 ("
b11000 u
b11111111111100010000000100010011 '
b11111111111100010000000100010011 <
b11111111111100010000000100010011 P
b11111111111100010000000100010011 ."
b110 /"
b11000 &
b11000 =
b11000 d
b11000 r
b11000 -"
b11000 x
1"
#280
0"
#285
b1001 -
b1001 C
b1001 2"
b0 +
b0 A
b0 4"
b11 8"
b1100 8
b1100 %"
b1100 +"
b0 7"
b0 ""
b1001 i
b1001 l
b1001 n
b1100 /
b1100 F
b1100 }
b1100 0"
b1100 I
b1100 e
b1100 o
b1100 |
b0 *
b0 @
b0 5"
b1001 D
b1001 #"
b0 M
b0 Y
b0 `
b11 h
b11 j
b11 m
b100000 w
b101 T
b100000 s
b101 S
b10000100000000100 R
b100000000100 U
b101 V
b10100010000000000000000 Q
b101 4
b101 *"
b1001 1
b1001 f
b1001 ~
b1001 )"
b101 5
b101 ("
b11100 u
b10100010000001010110011 '
b10100010000001010110011 <
b10100010000001010110011 P
b10100010000001010110011 ."
b111 /"
b11100 &
b11100 =
b11100 d
b11100 r
b11100 -"
b11100 x
b11 2
b11 g
b11 v
b11 '"
1"
#290
0"
#295
b11 +
b11 A
b11 4"
17
b11111111111111111111111111111110 8
b11111111111111111111111111111110 %"
b11111111111111111111111111111110 +"
1H
b11111111 8"
b10 7"
b10 ""
1p
b11111111111111111111111111111110 /
b11111111111111111111111111111110 F
b11111111111111111111111111111110 }
b11111111111111111111111111111110 0"
b11111111111111111111111111111110 I
b11111111111111111111111111111110 e
b11111111111111111111111111111110 o
b11111111111111111111111111111110 |
b0 -
b0 C
b0 2"
b1 h
b1 j
b1 m
b11 L
b11 Z
b11 b
b100 O
b100 W
b100 a
b100 k
b11111111111111111111111111111000 >
b11111111111111111111111111111000 ^
b11111111111111111111111111111000 c
b11111111111111111111111111111000 q
03
b11 i
b11 l
b11 n
b110000000000000000 D
b110000000000000000 #"
b11000 w
b10 T
b100100 s
b11111111111111111111111111111001 S
b11111111111100110110011111100010 R
b11111111111111111111111111111000 U
b11111111111111111111111111100010 V
b11111110001000110110000000000000 Q
b11001 4
b11001 *"
b10 5
b10 ("
b1 2
b1 g
b1 v
b1 '"
b110 6
b110 &"
b100000 u
b11111110001000110110110011100011 '
b11111110001000110110110011100011 <
b11111110001000110110110011100011 P
b11111110001000110110110011100011 ."
b1000 /"
b11 1
b11 f
b11 ~
b11 )"
b100000 &
b100000 =
b100000 d
b100000 r
b100000 -"
b100000 x
1"
#300
0"
#305
b10 8
b10 %"
b10 +"
b0 8"
b10 7"
b10 ""
b10 /
b10 F
b10 }
b10 0"
b10 I
b10 e
b10 o
b10 |
07
0H
b0 +
b0 A
b0 4"
b11111111111111111111111111111111 i
b11111111111111111111111111111111 l
b11111111111111111111111111111111 n
b0 D
b0 #"
b11 h
b11 j
b11 m
b11111111111111111111111111111111 >
b11111111111111111111111111111111 ^
b11111111111111111111111111111111 c
b11111111111111111111111111111111 q
b10 M
b10 Y
b10 `
b1000 O
b1000 W
b1000 a
b1000 k
13
b0 L
b0 Z
b0 b
b11111 T
b11100 s
b11111111111111111111111111100010 S
b11111111111100010000111111111110 R
b11111111111111111111011111100010 U
b11111111111111111111111111111111 V
b11111111111100010000000000000000 Q
b10 4
b10 *"
b0 1
b0 f
b0 ~
b0 )"
b11111 5
b11111 ("
b11 2
b11 g
b11 v
b11 '"
b10 6
b10 &"
b11000 u
b11100 w
b11111111111100010000000100010011 '
b11111111111100010000000100010011 <
b11111111111100010000000100010011 P
b11111111111100010000000100010011 ."
b110 /"
b11000 &
b11000 =
b11000 d
b11000 r
b11000 -"
b11000 x
1"
#310
0"
#315
b0 ,
b0 B
b0 3"
b11 8"
b1110 8
b1110 %"
b1110 +"
b10 7"
b10 ""
b1100 i
b1100 l
b1100 n
b1110 /
b1110 F
b1110 }
b1110 0"
b1110 I
b1110 e
b1110 o
b1110 |
b1100 +
b1100 A
b1100 4"
b11000000000000000000 D
b11000000000000000000 #"
b0 M
b0 Y
b0 `
b10 h
b10 j
b10 m
b100000 w
b101 T
b100000 s
b101 S
b10000100000000100 R
b100000000100 U
b101 V
b10100010000000000000000 Q
b101 4
b101 *"
b1100 1
b1100 f
b1100 ~
b1100 )"
b101 5
b101 ("
b11100 u
b10100010000001010110011 '
b10100010000001010110011 <
b10100010000001010110011 P
b10100010000001010110011 ."
b111 /"
b10 2
b10 g
b10 v
b10 '"
b11100 &
b11100 =
b11100 d
b11100 r
b11100 -"
b11100 x
1"
#320
0"
