single_cycle/sim/riscv.vcd
$date
	Thu Jun 24 16:11:53 2021
$end
$version
	Icarus Verilog
$end
$timescale
	1s
$end
$scope module riscv_tb $end
$var wire 8 ! gpio [7:0] $end
$var reg 1 " clk $end
$var reg 1 # rstn $end
$scope module fpga0 $end
$var wire 1 $ clk $end
$var wire 32 % data_addr [31:0] $end
$var wire 32 & data_rd [31:0] $end
$var wire 8 ' data_wr0 [7:0] $end
$var wire 8 ( data_wr1 [7:0] $end
$var wire 8 ) data_wr2 [7:0] $end
$var wire 8 * data_wr3 [7:0] $end
$var wire 4 + datamem_wr [3:0] $end
$var wire 1 , gpio_en $end
$var wire 8 - gpio_o [7:0] $end
$var wire 32 . instr [31:0] $end
$var wire 32 / instr_addr [31:0] $end
$var wire 1 0 mem_en $end
$var wire 1 1 rstn $end
$var reg 8 2 gpio_reg [7:0] $end
$scope module cpu0 $end
$var wire 4 3 ALU_cntr [3:0] $end
$var wire 2 4 ALUa [1:0] $end
$var wire 2 5 ALUb [1:0] $end
$var wire 3 6 Branch_cntr [2:0] $end
$var wire 3 7 Ld_cntr [2:0] $end
$var wire 2 8 St_cntr [1:0] $end
$var wire 32 9 alu_out [31:0] $end
$var wire 1 : alu_ov_flag $end
$var wire 1 ; alu_z_flag $end
$var wire 1 $ clk $end
$var wire 32 < data_addr [31:0] $end
$var wire 32 = data_in [31:0] $end
$var wire 32 > data_out [31:0] $end
$var wire 8 ? data_out0 [7:0] $end
$var wire 8 @ data_out1 [7:0] $end
$var wire 8 A data_out2 [7:0] $end
$var wire 8 B data_out3 [7:0] $end
$var wire 4 C datamem_wr [3:0] $end
$var wire 32 D imm_data [31:0] $end
$var wire 32 E instr_addr [31:0] $end
$var wire 32 F instr_in [31:0] $end
$var wire 1 G jal $end
$var wire 1 H jalr $end
$var wire 2 I mem_to_reg [1:0] $end
$var wire 32 J memtoreg_data [31:0] $end
$var wire 1 K pcbranch $end
$var wire 5 L reg_addr1 [4:0] $end
$var wire 5 M reg_addr2 [4:0] $end
$var wire 5 N reg_addr3 [4:0] $end
$var wire 1 O reg_wr $end
$var wire 32 P rs1 [31:0] $end
$var wire 32 Q rs2 [31:0] $end
$var wire 1 1 rstn $end
$scope module regset $end
$var wire 1 $ clk $end
$var wire 5 R rs1_addr [4:0] $end
$var wire 32 S rs1_out [31:0] $end
$var wire 5 T rs2_addr [4:0] $end
$var wire 32 U rs2_out [31:0] $end
$var wire 1 1 rstn $end
$var wire 5 V w_addr [4:0] $end
$var wire 32 W w_data [31:0] $end
$var wire 1 O write $end
$var integer 32 X i [31:0] $end
$upscope $end
$scope module fetchunit $end
$var wire 1 $ clk $end
$var wire 32 Y immediate [31:0] $end
$var wire 32 Z instr_addr_o [31:0] $end
$var wire 1 G jal $end
$var wire 1 H jalr $end
$var wire 32 [ pc_nxt [31:0] $end
$var wire 1 K pcbranch $end
$var wire 32 \ rs1 [31:0] $end
$var wire 1 1 rstn $end
$var wire 32 ] t1 [31:0] $end
$var wire 32 ^ t2 [31:0] $end
$var wire 32 _ t3 [31:0] $end
$var reg 32 ` pc [31:0] $end
$upscope $end
$scope module decodeunit $end
$var wire 32 a Iimm [31:0] $end
$var wire 32 b SBimm [31:0] $end
$var wire 32 c Shiftimm [31:0] $end
$var wire 32 d Simm [31:0] $end
$var wire 32 e UJimm [31:0] $end
$var wire 32 f Uimm [31:0] $end
$var wire 32 g instr [31:0] $end
$var wire 1 1 rstn $end
$var reg 2 h alu_a [1:0] $end
$var reg 2 i alu_b [1:0] $end
$var reg 4 j alu_cntr [3:0] $end
$var reg 3 k branch_cntr [2:0] $end
$var reg 32 l imm [31:0] $end
$var reg 1 m jal $end
$var reg 1 n jalr $end
$var reg 3 o ld_cntr [2:0] $end
$var reg 2 p memtoreg [1:0] $end
$var reg 1 q reg_write $end
$var reg 2 r st_cntr [1:0] $end
$upscope $end
$scope module exeunit $end
$var wire 32 s Rd1 [31:0] $end
$var wire 32 t Rd2 [31:0] $end
$var wire 2 u alu_a [1:0] $end
$var wire 2 v alu_b [1:0] $end
$var wire 4 w alu_cntr [3:0] $end
$var wire 32 x alu_result [31:0] $end
$var wire 3 y branch_cntr [2:0] $end
$var wire 32 z imm [31:0] $end
$var wire 1 : ov_flag $end
$var wire 32 { pc [31:0] $end
$var wire 1 1 rstn $end
$var wire 1 ; z_flag $end
$var reg 32 | a [31:0] $end
$var reg 32 } b [31:0] $end
$var reg 1 ~ pcbranch $end
$scope module alu_inst $end
$var wire 32 !" a [31:0] $end
$var wire 4 "" alu_cntr [3:0] $end
$var wire 32 #" b [31:0] $end
$var wire 1 : o_flag $end
$var wire 1 1 rstn $end
$var wire 32 $" unsigned_in_a [31:0] $end
$var wire 32 %" unsigned_in_b [31:0] $end
$var wire 1 ; z_flag $end
$var reg 32 &" alu_result [31:0] $end
$var reg 1 '" slt_reg $end
$upscope $end
$upscope $end
$scope module lsuunit $end
$var wire 3 (" Ld_cntr [2:0] $end
$var wire 2 )" MemtoReg [1:0] $end
$var wire 2 *" St_cntr [1:0] $end
$var wire 32 +" alu_out [31:0] $end
$var wire 1 : alu_ov_flag $end
$var wire 2 ," b_pos [1:0] $end
$var wire 1 $ clk $end
$var wire 8 -" d0 [7:0] $end
$var wire 8 ." d1 [7:0] $end
$var wire 8 /" d2 [7:0] $end
$var wire 8 0" d3 [7:0] $end
$var wire 32 1" data_addr [31:0] $end
$var wire 32 2" datamem_rd_in [31:0] $end
$var wire 32 3" datamem_wr_in [31:0] $end
$var wire 1 1 rstn $end
$var reg 32 4" datamem_wr_o [31:0] $end
$var reg 4 5" dmem_wr [3:0] $end
$var reg 32 6" reg_wrdata [31:0] $end
$upscope $end
$upscope $end
$scope module r0 $end
$var wire 10 7" addr [9:0] $end
$var wire 32 8" addr_in [31:0] $end
$var wire 1 $ clk $end
$var wire 32 9" data_out [31:0] $end
$upscope $end
$scope module rm0 $end
$var wire 32 :" addr [31:0] $end
$var wire 8 ;" addrs [7:0] $end
$var wire 4 <" byte_add [3:0] $end
$var wire 1 $ clk $end
$var wire 32 =" data_rd [31:0] $end
$var wire 8 >" data_wr0 [7:0] $end
$var wire 8 ?" data_wr1 [7:0] $end
$var wire 8 @" data_wr2 [7:0] $end
$var wire 8 A" data_wr3 [7:0] $end
$var wire 1 0 mem_en $end
$var wire 4 B" mem_wr [3:0] $end
$var wire 1 1 rstn $end
$var integer 32 C" i [31:0] $end
$var integer 32 D" j [31:0] $end
$var integer 32 E" k [31:0] $end
$var integer 32 F" l [31:0] $end
$var integer 32 G" ram_size [31:0] $end
$upscope $end
$upscope $end
$upscope $end
$enddefinitions $end
#0
$dumpvars
b100000000 G"
b100000000 F"
b100000000 E"
b100000000 D"
b100000000 C"
b0 B"
b0 A"
b0 @"
b0 ?"
b0 >"
b0 ="
b0 <"
b0 ;"
b0 :"
b1000000000000000000000100010011 9"
b0 8"
b0 7"
b0 6"
b0 5"
b0 4"
b0 3"
b0 2"
b0 1"
b0 0"
b0 /"
b0 ."
b0 -"
b0 ,"
b0 +"
b0 *"
b0 )"
b0 ("
0'"
b0 &"
b0 %"
b0 $"
b0 #"
b0 ""
b0 !"
0~
b0 }
b0 |
b0 {
b0 z
b0 y
b0 x
b0 w
b0 v
b0 u
b0 t
b0 s
b0 r
0q
b0 p
b0 o
0n
0m
b0 l
b0 k
b0 j
b0 i
b0 h
b1000000000000000000000100010011 g
b1000000000000000000000000000000 f
b10000000000 e
b10000000010 d
b0 c
b10000000010 b
b10000000000 a
b0 `
b100 _
b100 ^
b0 ]
b0 \
b100 [
b0 Z
b0 Y
b100000 X
b0 W
b10 V
b0 U
b0 T
b0 S
b0 R
b0 Q
b0 P
0O
b10 N
b0 M
b0 L
0K
b0 J
b0 I
0H
0G
b1000000000000000000000100010011 F
b0 E
b0 D
b0 C
b0 B
b0 A
b0 @
b0 ?
b0 >
b0 =
b0 <
1;
0:
b0 9
b0 8
b0 7
b0 6
b0 5
b0 4
b0 3
b0 2
01
10
b0 /
b1000000000000000000000100010011 .
b0 -
0,
b0 +
b0 *
b0 )
b0 (
b0 '
b0 &
b0 %
0$
0#
0"
b0 !
$end
#5
b100000000 F"
b100000000 E"
b100000000 D"
b100000000 C"
b100000 X
1"
1$
#10
0"
0$
#15
b100000 X
b100000000 C"
b100000000 D"
b100000000 E"
b100000000 F"
1"
1$
#20
0"
0$
#25
b100000000 F"
b100000000 E"
b100000000 D"
b100000000 C"
b100000 X
1"
1$
#30
0"
0$
#35
b100000 X
b100000000 C"
b100000000 D"
b100000000 E"
b100000000 F"
1"
1$
#40
0"
0$
#45
b100000000 F"
b100000000 E"
b100000000 D"
b100000000 C"
b100000 X
1"
1$
#50
0"
0$
#55
b100000 X
b100000000 C"
b100000000 D"
b100000000 E"
b100000000 F"
1"
1$
#60
0"
0$
#65
b100000000 F"
b100000000 E"
b100000000 D"
b100000000 C"
b100000 X
1"
1$
#70
0"
0$
#75
b100000 X
b100000000 C"
b100000000 D"
b100000000 E"
b100000000 F"
1"
1$
#80
0"
0$
#85
b100000000 F"
b100000000 E"
b100000000 D"
b100000000 C"
b100000 X
1"
1$
#90
0"
0$
#95
b100000 X
b100000000 C"
b100000000 D"
b100000000 E"
b100000000 F"
1"
1$
#96
b10000000000 6"
b10000000000 J
b10000000000 W
1,
0;
b10000000000 &"
b10000000000 %
b10000000000 <
b10000000000 1"
b10000000000 :"
b10000000000 9
b10000000000 x
b10000000000 +"
b10000000000 }
b10000000000 #"
b10000000000 %"
b10000000000 l
b10000000000 D
b10000000000 Y
b10000000000 z
b1 p
b1 I
b1 )"
b11 h
b11 4
b11 u
b10 i
b10 5
b10 v
b1000 j
b1000 3
b1000 w
b1000 ""
1q
1O
1#
11
#100
0"
0$
#105
b1111 ;"
b11 <"
b11 ,"
b111111 6"
b111111 J
b111111 W
b111111 }
b111111 #"
b111111 %"
0,
0;
b111111 &"
b111111 %
b111111 <
b111111 1"
b111111 :"
b111111 9
b111111 x
b111111 +"
1q
1O
b1 p
b1 I
b1 )"
b11 h
b11 4
b11 u
b10 i
b10 5
b10 v
b1000 j
b1000 3
b1000 w
b1000 ""
b111111 l
b111111 D
b111111 Y
b111111 z
b1000 [
b11111 c
b1000 _
b100011 d
b100000111110 e
b100000100010 b
b111111 a
b11111100000000000000000000 f
b11 N
b11 V
b11111 M
b11111 T
b100 ]
b11111100000000000110010011 .
b11111100000000000110010011 F
b11111100000000000110010011 g
b11111100000000000110010011 9"
b1 7"
b100 `
b100 /
b100 E
b100 Z
b100 {
b100 8"
1"
1$
#110
0"
0$
#115
b0 6"
b0 J
b0 W
b0 }
b0 #"
b0 %"
1;
b0 ;"
b0 <"
b0 ,"
b0 &"
b0 %
b0 <
b0 1"
b0 :"
b0 9
b0 x
b0 +"
1q
1O
b1 p
b1 I
b1 )"
b11 h
b11 4
b11 u
b10 i
b10 5
b10 v
b1000 j
b1000 3
b1000 w
b1000 ""
b0 l
b0 D
b0 Y
b0 z
b1100 [
b0 c
b1100 _
b100 d
b0 e
b100 b
b0 a
b0 f
b100 N
b100 V
b0 M
b0 T
b1000 ]
b1000010011 .
b1000010011 F
b1000010011 g
b1000010011 9"
b10 7"
b1000 `
b1000 /
b1000 E
b1000 Z
b1000 {
b1000 8"
1"
1$
#120
0"
0$
#125
1q
1O
b1 p
b1 I
b1 )"
b11 h
b11 4
b11 u
b10 i
b10 5
b10 v
b1000 j
b1000 3
b1000 w
b1000 ""
b10000 [
b10000 _
b1 d
b100000000000 b
b1 N
b1 V
b1100 ]
b10010011 .
b10010011 F
b10010011 g
b10010011 9"
b11 7"
b1100 `
b1100 /
b1100 E
b1100 Z
b1100 {
b1100 8"
1"
1$
#130
0"
0$
#135
b1 6"
b1 J
b1 W
0;
b1 <"
b1 ,"
b1 &"
b1 %
b1 <
b1 1"
b1 :"
b1 9
b1 x
b1 +"
b1 }
b1 #"
b1 %"
b1 l
b1 D
b1 Y
b1 z
1q
1O
b1 p
b1 I
b1 )"
b11 h
b11 4
b11 u
b10 i
b10 5
b10 v
b1000 j
b1000 3
b1000 w
b1000 ""
b10100 [
b1 c
b10100 _
b1000100000000000 e
b1 a
b100001000000000000000 f
b1 M
b1 T
b1 L
b1 R
b10000 ]
b100001000000010010011 .
b100001000000010010011 F
b100001000000010010011 g
b100001000000010010011 9"
b100 7"
b10000 `
b10000 /
b10000 E
b10000 Z
b10000 {
b10000 8"
1"
1$
#140
0"
0$
#145
b111111 )
b111111 A
b111111 @"
1~
1K
1:
b11110000 ;"
1'"
b0 '
b0 ?
b0 >"
b11111111111111111111111111000010 6"
b11111111111111111111111111000010 J
b11111111111111111111111111000010 W
b111111 }
b111111 #"
b111111 %"
0;
b10 <"
b10 ,"
b0 (
b0 @
b0 ?"
b11111111111111111111111111000010 &"
b11111111111111111111111111000010 %
b11111111111111111111111111000010 <
b11111111111111111111111111000010 1"
b11111111111111111111111111000010 :"
b11111111111111111111111111000010 9
b11111111111111111111111111000010 x
b11111111111111111111111111000010 +"
b11 k
b11 6
b11 y
0q
0O
b1 p
b1 I
b1 )"
b11 h
b11 4
b11 u
b0 i
b0 5
b0 v
b100 j
b100 3
b100 w
b100 ""
b11111111111111111111111111111100 l
b11111111111111111111111111111100 D
b11111111111111111111111111111100 Y
b11111111111111111111111111111100 z
b1111110000000000000000 4"
b1111110000000000000000 >
b1 |
b1 !"
b1 $"
b10000 [
b11 c
b11000 _
b11111111111111111111111111111101 d
b11111111111100001110111111100010 e
b11111111111111111111111111111100 b
b11111111111111111111111111100011 a
b11111110001100001110000000000000 f
b11101 N
b11101 V
b11 M
b11 T
b10100 ]
b11111110001100001110111011100011 .
b11111110001100001110111011100011 F
b11111110001100001110111011100011 g
b11111110001100001110111011100011 9"
b101 7"
b111111 -"
b10100 `
b10100 /
b10100 E
b10100 Z
b10100 {
b10100 8"
b1 P
b1 S
b1 \
b1 s
b111111 Q
b111111 U
b111111 t
b111111 3"
1"
1$
#150
0"
0$
#155
b0 '
b0 ?
b0 >"
b10 6"
b10 J
b10 W
0~
0K
0:
0;
b0 ;"
b10 <"
b10 ,"
b1 )
b1 A
b1 @"
0'"
b10 &"
b10 %
b10 <
b10 1"
b10 :"
b10 9
b10 x
b10 +"
b10000000000000000 4"
b10000000000000000 >
b1 }
b1 #"
b1 %"
b10 i
b10 5
b10 v
1q
1O
b1 p
b1 I
b1 )"
b11 h
b11 4
b11 u
b0 k
b0 6
b0 y
b1000 j
b1000 3
b1000 w
b1000 ""
b1 l
b1 D
b1 Y
b1 z
b1 c
b1 -"
b10100 _
b1 d
b1000100000000000 e
b100000000000 b
b1 a
b100001000000000000000 f
b1 N
b1 V
b1 Q
b1 U
b1 t
b1 3"
b1 M
b1 T
b10000 ]
b10100 [
b100001000000010010011 .
b100001000000010010011 F
b100001000000010010011 g
b100001000000010010011 9"
b100 7"
b10000 `
b10000 /
b10000 E
b10000 Z
b10000 {
b10000 8"
1"
1$
#160
0"
0$
#165
b111111 *
b111111 B
b111111 A"
1~
1K
1:
b11110000 ;"
1'"
b0 '
b0 ?
b0 >"
b11111111111111111111111111000011 6"
b11111111111111111111111111000011 J
b11111111111111111111111111000011 W
b111111 }
b111111 #"
b111111 %"
0;
b11 <"
b11 ,"
b0 )
b0 A
b0 @"
b11111111111111111111111111000011 &"
b11111111111111111111111111000011 %
b11111111111111111111111111000011 <
b11111111111111111111111111000011 1"
b11111111111111111111111111000011 :"
b11111111111111111111111111000011 9
b11111111111111111111111111000011 x
b11111111111111111111111111000011 +"
b11 k
b11 6
b11 y
0q
0O
b1 p
b1 I
b1 )"
b11 h
b11 4
b11 u
b0 i
b0 5
b0 v
b100 j
b100 3
b100 w
b100 ""
b11111111111111111111111111111100 l
b11111111111111111111111111111100 D
b11111111111111111111111111111100 Y
b11111111111111111111111111111100 z
b111111000000000000000000000000 4"
b111111000000000000000000000000 >
b10 |
b10 !"
b10 $"
b10000 [
b11 c
b11000 _
b11111111111111111111111111111101 d
b11111111111100001110111111100010 e
b11111111111111111111111111111100 b
b11111111111111111111111111100011 a
b11111110001100001110000000000000 f
b11101 N
b11101 V
b11 M
b11 T
b10100 ]
b11111110001100001110111011100011 .
b11111110001100001110111011100011 F
b11111110001100001110111011100011 g
b11111110001100001110111011100011 9"
b101 7"
b111111 -"
b10100 `
b10100 /
b10100 E
b10100 Z
b10100 {
b10100 8"
b10 P
b10 S
b10 \
b10 s
b111111 Q
b111111 U
b111111 t
b111111 3"
1"
1$
#170
0"
0$
#175
b0 '
b0 ?
b0 >"
b11 6"
b11 J
b11 W
0~
0K
0:
0;
b0 ;"
b11 <"
b11 ,"
b10 *
b10 B
b10 A"
0'"
b11 &"
b11 %
b11 <
b11 1"
b11 :"
b11 9
b11 x
b11 +"
b10000000000000000000000000 4"
b10000000000000000000000000 >
b1 }
b1 #"
b1 %"
b10 i
b10 5
b10 v
1q
1O
b1 p
b1 I
b1 )"
b11 h
b11 4
b11 u
b0 k
b0 6
b0 y
b1000 j
b1000 3
b1000 w
b1000 ""
b1 l
b1 D
b1 Y
b1 z
b1 c
b10 -"
b10100 _
b1 d
b1000100000000000 e
b100000000000 b
b1 a
b100001000000000000000 f
b1 N
b1 V
b10 Q
b10 U
b10 t
b10 3"
b1 M
b1 T
b10000 ]
b10100 [
b100001000000010010011 .
b100001000000010010011 F
b100001000000010010011 g
b100001000000010010011 9"
b100 7"
b10000 `
b10000 /
b10000 E
b10000 Z
b10000 {
b10000 8"
1"
1$
#180
0"
0$
#185
1~
1K
1:
b11110001 ;"
1'"
b111111 '
b111111 ?
b111111 >"
b11111111111111111111111111000100 6"
b11111111111111111111111111000100 J
b11111111111111111111111111000100 W
b111111 }
b111111 #"
b111111 %"
0;
b0 <"
b0 ,"
b0 *
b0 B
b0 A"
b11111111111111111111111111000100 &"
b11111111111111111111111111000100 %
b11111111111111111111111111000100 <
b11111111111111111111111111000100 1"
b11111111111111111111111111000100 :"
b11111111111111111111111111000100 9
b11111111111111111111111111000100 x
b11111111111111111111111111000100 +"
b11 k
b11 6
b11 y
0q
0O
b1 p
b1 I
b1 )"
b11 h
b11 4
b11 u
b0 i
b0 5
b0 v
b100 j
b100 3
b100 w
b100 ""
b11111111111111111111111111111100 l
b11111111111111111111111111111100 D
b11111111111111111111111111111100 Y
b11111111111111111111111111111100 z
b111111 4"
b111111 >
b11 |
b11 !"
b11 $"
b10000 [
b11 c
b11000 _
b11111111111111111111111111111101 d
b11111111111100001110111111100010 e
b11111111111111111111111111111100 b
b11111111111111111111111111100011 a
b11111110001100001110000000000000 f
b11101 N
b11101 V
b11 M
b11 T
b10100 ]
b11111110001100001110111011100011 .
b11111110001100001110111011100011 F
b11111110001100001110111011100011 g
b11111110001100001110111011100011 9"
b101 7"
b111111 -"
b10100 `
b10100 /
b10100 E
b10100 Z
b10100 {
b10100 8"
b11 P
b11 S
b11 \
b11 s
b111111 Q
b111111 U
b111111 t
b111111 3"
1"
1$
#190
0"
0$
#195
b100 6"
b100 J
b100 W
0~
0K
0:
0;
b1 ;"
b11 '
b11 ?
b11 >"
0'"
b100 &"
b100 %
b100 <
b100 1"
b100 :"
b100 9
b100 x
b100 +"
b11 4"
b11 >
b1 }
b1 #"
b1 %"
b10 i
b10 5
b10 v
1q
1O
b1 p
b1 I
b1 )"
b11 h
b11 4
b11 u
b0 k
b0 6
b0 y
b1000 j
b1000 3
b1000 w
b1000 ""
b1 l
b1 D
b1 Y
b1 z
b1 c
b11 -"
b10100 _
b1 d
b1000100000000000 e
b100000000000 b
b1 a
b100001000000000000000 f
b1 N
b1 V
b11 Q
b11 U
b11 t
b11 3"
b1 M
b1 T
b10000 ]
b10100 [
b100001000000010010011 .
b100001000000010010011 F
b100001000000010010011 g
b100001000000010010011 9"
b100 7"
b10000 `
b10000 /
b10000 E
b10000 Z
b10000 {
b10000 8"
1"
1$
#200
0"
0$
#205
b111111 (
b111111 @
b111111 ?"
1~
1K
1:
1'"
b1 <"
b1 ,"
b11111111111111111111111111000101 6"
b11111111111111111111111111000101 J
b11111111111111111111111111000101 W
b111111 }
b111111 #"
b111111 %"
0;
b11110001 ;"
b0 '
b0 ?
b0 >"
b11111111111111111111111111000101 &"
b11111111111111111111111111000101 %
b11111111111111111111111111000101 <
b11111111111111111111111111000101 1"
b11111111111111111111111111000101 :"
b11111111111111111111111111000101 9
b11111111111111111111111111000101 x
b11111111111111111111111111000101 +"
b11 k
b11 6
b11 y
0q
0O
b1 p
b1 I
b1 )"
b11 h
b11 4
b11 u
b0 i
b0 5
b0 v
b100 j
b100 3
b100 w
b100 ""
b11111111111111111111111111111100 l
b11111111111111111111111111111100 D
b11111111111111111111111111111100 Y
b11111111111111111111111111111100 z
b11111100000000 4"
b11111100000000 >
b100 |
b100 !"
b100 $"
b10000 [
b11 c
b11000 _
b11111111111111111111111111111101 d
b11111111111100001110111111100010 e
b11111111111111111111111111111100 b
b11111111111111111111111111100011 a
b11111110001100001110000000000000 f
b11101 N
b11101 V
b11 M
b11 T
b10100 ]
b11111110001100001110111011100011 .
b11111110001100001110111011100011 F
b11111110001100001110111011100011 g
b11111110001100001110111011100011 9"
b101 7"
b111111 -"
b10100 `
b10100 /
b10100 E
b10100 Z
b10100 {
b10100 8"
b100 P
b100 S
b100 \
b100 s
b111111 Q
b111111 U
b111111 t
b111111 3"
1"
1$
#210
0"
0$
#215
b0 '
b0 ?
b0 >"
b101 6"
b101 J
b101 W
0~
0K
0:
0;
b1 ;"
b1 <"
b1 ,"
b100 (
b100 @
b100 ?"
0'"
b101 &"
b101 %
b101 <
b101 1"
b101 :"
b101 9
b101 x
b101 +"
b10000000000 4"
b10000000000 >
b1 }
b1 #"
b1 %"
b10 i
b10 5
b10 v
1q
1O
b1 p
b1 I
b1 )"
b11 h
b11 4
b11 u
b0 k
b0 6
b0 y
b1000 j
b1000 3
b1000 w
b1000 ""
b1 l
b1 D
b1 Y
b1 z
b1 c
b100 -"
b10100 _
b1 d
b1000100000000000 e
b100000000000 b
b1 a
b100001000000000000000 f
b1 N
b1 V
b100 Q
b100 U
b100 t
b100 3"
b1 M
b1 T
b10000 ]
b10100 [
b100001000000010010011 .
b100001000000010010011 F
b100001000000010010011 g
b100001000000010010011 9"
b100 7"
b10000 `
b10000 /
b10000 E
b10000 Z
b10000 {
b10000 8"
1"
1$
#220
0"
0$
#225
b111111 )
b111111 A
b111111 @"
1~
1K
1:
1'"
b0 '
b0 ?
b0 >"
b11111111111111111111111111000110 6"
b11111111111111111111111111000110 J
b11111111111111111111111111000110 W
b111111 }
b111111 #"
b111111 %"
0;
b11110001 ;"
b10 <"
b10 ,"
b0 (
b0 @
b0 ?"
b11111111111111111111111111000110 &"
b11111111111111111111111111000110 %
b11111111111111111111111111000110 <
b11111111111111111111111111000110 1"
b11111111111111111111111111000110 :"
b11111111111111111111111111000110 9
b11111111111111111111111111000110 x
b11111111111111111111111111000110 +"
b11 k
b11 6
b11 y
0q
0O
b1 p
b1 I
b1 )"
b11 h
b11 4
b11 u
b0 i
b0 5
b0 v
b100 j
b100 3
b100 w
b100 ""
b11111111111111111111111111111100 l
b11111111111111111111111111111100 D
b11111111111111111111111111111100 Y
b11111111111111111111111111111100 z
b1111110000000000000000 4"
b1111110000000000000000 >
b101 |
b101 !"
b101 $"
b10000 [
b11 c
b11000 _
b11111111111111111111111111111101 d
b11111111111100001110111111100010 e
b11111111111111111111111111111100 b
b11111111111111111111111111100011 a
b11111110001100001110000000000000 f
b11101 N
b11101 V
b11 M
b11 T
b10100 ]
b11111110001100001110111011100011 .
b11111110001100001110111011100011 F
b11111110001100001110111011100011 g
b11111110001100001110111011100011 9"
b101 7"
b111111 -"
b10100 `
b10100 /
b10100 E
b10100 Z
b10100 {
b10100 8"
b101 P
b101 S
b101 \
b101 s
b111111 Q
b111111 U
b111111 t
b111111 3"
1"
1$
#230
0"
0$
#235
b0 '
b0 ?
b0 >"
b110 6"
b110 J
b110 W
0~
0K
0:
0;
b1 ;"
b10 <"
b10 ,"
b101 )
b101 A
b101 @"
0'"
b110 &"
b110 %
b110 <
b110 1"
b110 :"
b110 9
b110 x
b110 +"
b1010000000000000000 4"
b1010000000000000000 >
b1 }
b1 #"
b1 %"
b10 i
b10 5
b10 v
1q
1O
b1 p
b1 I
b1 )"
b11 h
b11 4
b11 u
b0 k
b0 6
b0 y
b1000 j
b1000 3
b1000 w
b1000 ""
b1 l
b1 D
b1 Y
b1 z
b1 c
b101 -"
b10100 _
b1 d
b1000100000000000 e
b100000000000 b
b1 a
b100001000000000000000 f
b1 N
b1 V
b101 Q
b101 U
b101 t
b101 3"
b1 M
b1 T
b10000 ]
b10100 [
b100001000000010010011 .
b100001000000010010011 F
b100001000000010010011 g
b100001000000010010011 9"
b100 7"
b10000 `
b10000 /
b10000 E
b10000 Z
b10000 {
b10000 8"
1"
1$
#240
0"
0$
#245
b111111 *
b111111 B
b111111 A"
1~
1K
1:
1'"
b0 '
b0 ?
b0 >"
b11111111111111111111111111000111 6"
b11111111111111111111111111000111 J
b11111111111111111111111111000111 W
b111111 }
b111111 #"
b111111 %"
0;
b11110001 ;"
b11 <"
b11 ,"
b0 )
b0 A
b0 @"
b11111111111111111111111111000111 &"
b11111111111111111111111111000111 %
b11111111111111111111111111000111 <
b11111111111111111111111111000111 1"
b11111111111111111111111111000111 :"
b11111111111111111111111111000111 9
b11111111111111111111111111000111 x
b11111111111111111111111111000111 +"
b11 k
b11 6
b11 y
0q
0O
b1 p
b1 I
b1 )"
b11 h
b11 4
b11 u
b0 i
b0 5
b0 v
b100 j
b100 3
b100 w
b100 ""
b11111111111111111111111111111100 l
b11111111111111111111111111111100 D
b11111111111111111111111111111100 Y
b11111111111111111111111111111100 z
b111111000000000000000000000000 4"
b111111000000000000000000000000 >
b110 |
b110 !"
b110 $"
b10000 [
b11 c
b11000 _
b11111111111111111111111111111101 d
b11111111111100001110111111100010 e
b11111111111111111111111111111100 b
b11111111111111111111111111100011 a
b11111110001100001110000000000000 f
b11101 N
b11101 V
b11 M
b11 T
b10100 ]
b11111110001100001110111011100011 .
b11111110001100001110111011100011 F
b11111110001100001110111011100011 g
b11111110001100001110111011100011 9"
b101 7"
b111111 -"
b10100 `
b10100 /
b10100 E
b10100 Z
b10100 {
b10100 8"
b110 P
b110 S
b110 \
b110 s
b111111 Q
b111111 U
b111111 t
b111111 3"
1"
1$
#250
0"
0$
#255
b0 '
b0 ?
b0 >"
b111 6"
b111 J
b111 W
0~
0K
0:
0;
b1 ;"
b11 <"
b11 ,"
b110 *
b110 B
b110 A"
0'"
b111 &"
b111 %
b111 <
b111 1"
b111 :"
b111 9
b111 x
b111 +"
b110000000000000000000000000 4"
b110000000000000000000000000 >
b1 }
b1 #"
b1 %"
b10 i
b10 5
b10 v
1q
1O
b1 p
b1 I
b1 )"
b11 h
b11 4
b11 u
b0 k
b0 6
b0 y
b1000 j
b1000 3
b1000 w
b1000 ""
b1 l
b1 D
b1 Y
b1 z
b1 c
b110 -"
b10100 _
b1 d
b1000100000000000 e
b100000000000 b
b1 a
b100001000000000000000 f
b1 N
b1 V
b110 Q
b110 U
b110 t
b110 3"
b1 M
b1 T
b10000 ]
b10100 [
b100001000000010010011 .
b100001000000010010011 F
b100001000000010010011 g
b100001000000010010011 9"
b100 7"
b10000 `
b10000 /
b10000 E
b10000 Z
b10000 {
b10000 8"
1"
1$
#260
0"
0$
#265
1~
1K
1:
1'"
b111111 '
b111111 ?
b111111 >"
b11111111111111111111111111001000 6"
b11111111111111111111111111001000 J
b11111111111111111111111111001000 W
b111111 }
b111111 #"
b111111 %"
0;
b11110010 ;"
b0 <"
b0 ,"
b0 *
b0 B
b0 A"
b11111111111111111111111111001000 &"
b11111111111111111111111111001000 %
b11111111111111111111111111001000 <
b11111111111111111111111111001000 1"
b11111111111111111111111111001000 :"
b11111111111111111111111111001000 9
b11111111111111111111111111001000 x
b11111111111111111111111111001000 +"
b11 k
b11 6
b11 y
0q
0O
b1 p
b1 I
b1 )"
b11 h
b11 4
b11 u
b0 i
b0 5
b0 v
b100 j
b100 3
b100 w
b100 ""
b11111111111111111111111111111100 l
b11111111111111111111111111111100 D
b11111111111111111111111111111100 Y
b11111111111111111111111111111100 z
b111111 4"
b111111 >
b111 |
b111 !"
b111 $"
b10000 [
b11 c
b11000 _
b11111111111111111111111111111101 d
b11111111111100001110111111100010 e
b11111111111111111111111111111100 b
b11111111111111111111111111100011 a
b11111110001100001110000000000000 f
b11101 N
b11101 V
b11 M
b11 T
b10100 ]
b11111110001100001110111011100011 .
b11111110001100001110111011100011 F
b11111110001100001110111011100011 g
b11111110001100001110111011100011 9"
b101 7"
b111111 -"
b10100 `
b10100 /
b10100 E
b10100 Z
b10100 {
b10100 8"
b111 P
b111 S
b111 \
b111 s
b111111 Q
b111111 U
b111111 t
b111111 3"
1"
1$
#270
0"
0$
#275
b1000 6"
b1000 J
b1000 W
0~
0K
0:
0;
b10 ;"
b111 '
b111 ?
b111 >"
0'"
b1000 &"
b1000 %
b1000 <
b1000 1"
b1000 :"
b1000 9
b1000 x
b1000 +"
b111 4"
b111 >
b1 }
b1 #"
b1 %"
b10 i
b10 5
b10 v
1q
1O
b1 p
b1 I
b1 )"
b11 h
b11 4
b11 u
b0 k
b0 6
b0 y
b1000 j
b1000 3
b1000 w
b1000 ""
b1 l
b1 D
b1 Y
b1 z
b1 c
b111 -"
b10100 _
b1 d
b1000100000000000 e
b100000000000 b
b1 a
b100001000000000000000 f
b1 N
b1 V
b111 Q
b111 U
b111 t
b111 3"
b1 M
b1 T
b10000 ]
b10100 [
b100001000000010010011 .
b100001000000010010011 F
b100001000000010010011 g
b100001000000010010011 9"
b100 7"
b10000 `
b10000 /
b10000 E
b10000 Z
b10000 {
b10000 8"
1"
1$
